<?xml version="1.0" encoding="UTF-8" standalone="no"?>
<!-- Created with Inkscape (http://www.inkscape.org/) -->

<svg
   xmlns:dc="http://purl.org/dc/elements/1.1/"
   xmlns:cc="http://creativecommons.org/ns#"
   xmlns:rdf="http://www.w3.org/1999/02/22-rdf-syntax-ns#"
   xmlns:svg="http://www.w3.org/2000/svg"
   xmlns="http://www.w3.org/2000/svg"
   xmlns:xlink="http://www.w3.org/1999/xlink"
   xmlns:sodipodi="http://sodipodi.sourceforge.net/DTD/sodipodi-0.dtd"
   xmlns:inkscape="http://www.inkscape.org/namespaces/inkscape"
   width="150.39081mm"
   height="99.427841mm"
   viewBox="0 0 150.39081 99.427838"
   version="1.1"
   id="svg39918"
   inkscape:version="0.92.3 (2405546, 2018-03-11)"
   sodipodi:docname="cache6.svg">
  <defs
     id="defs39912">
    <marker
       inkscape:isstock="true"
       style="overflow:visible"
       id="marker46848"
       refX="0"
       refY="0"
       orient="auto"
       inkscape:stockid="Arrow1Mstart">
      <path
         transform="matrix(0.4,0,0,0.4,4,0)"
         style="fill:#000000;fill-opacity:1;fill-rule:evenodd;stroke:#000000;stroke-width:1.00000003pt;stroke-opacity:1"
         d="M 0,0 5,-5 -12.5,0 5,5 Z"
         id="path46846"
         inkscape:connector-curvature="0" />
    </marker>
    <marker
       inkscape:stockid="Arrow1Mend"
       orient="auto"
       refY="0"
       refX="0"
       id="marker45202"
       style="overflow:visible"
       inkscape:isstock="true">
      <path
         id="path45200"
         d="M 0,0 5,-5 -12.5,0 5,5 Z"
         style="fill:#000000;fill-opacity:1;fill-rule:evenodd;stroke:#000000;stroke-width:1.00000003pt;stroke-opacity:1"
         transform="matrix(-0.4,0,0,-0.4,-4,0)"
         inkscape:connector-curvature="0" />
    </marker>
    <marker
       inkscape:stockid="Arrow1Send"
       orient="auto"
       refY="0"
       refX="0"
       id="marker44844"
       style="overflow:visible"
       inkscape:isstock="true">
      <path
         id="path44842"
         d="M 0,0 5,-5 -12.5,0 5,5 Z"
         style="fill:#000000;fill-opacity:1;fill-rule:evenodd;stroke:#000000;stroke-width:1.00000003pt;stroke-opacity:1"
         transform="matrix(-0.2,0,0,-0.2,-1.2,0)"
         inkscape:connector-curvature="0" />
    </marker>
    <marker
       inkscape:isstock="true"
       style="overflow:visible"
       id="marker44182"
       refX="0"
       refY="0"
       orient="auto"
       inkscape:stockid="Arrow1Mend">
      <path
         transform="matrix(-0.4,0,0,-0.4,-4,0)"
         style="fill:#000000;fill-opacity:1;fill-rule:evenodd;stroke:#000000;stroke-width:1.00000003pt;stroke-opacity:1"
         d="M 0,0 5,-5 -12.5,0 5,5 Z"
         id="path44180"
         inkscape:connector-curvature="0" />
    </marker>
    <marker
       inkscape:isstock="true"
       style="overflow:visible"
       id="marker43666"
       refX="0"
       refY="0"
       orient="auto"
       inkscape:stockid="Arrow1Mend">
      <path
         transform="matrix(-0.4,0,0,-0.4,-4,0)"
         style="fill:#000000;fill-opacity:1;fill-rule:evenodd;stroke:#000000;stroke-width:1.00000003pt;stroke-opacity:1"
         d="M 0,0 5,-5 -12.5,0 5,5 Z"
         id="path43664"
         inkscape:connector-curvature="0" />
    </marker>
    <marker
       inkscape:isstock="true"
       style="overflow:visible"
       id="marker41792"
       refX="0"
       refY="0"
       orient="auto"
       inkscape:stockid="Arrow1Mend">
      <path
         transform="matrix(-0.4,0,0,-0.4,-4,0)"
         style="fill:#000000;fill-opacity:1;fill-rule:evenodd;stroke:#000000;stroke-width:1.00000003pt;stroke-opacity:1"
         d="M 0,0 5,-5 -12.5,0 5,5 Z"
         id="path41790"
         inkscape:connector-curvature="0" />
    </marker>
    <linearGradient
       inkscape:collect="always"
       xlink:href="#linearGradient951"
       id="linearGradient991"
       gradientUnits="userSpaceOnUse"
       gradientTransform="matrix(1.0324563,0,0,8.8188972,100.49685,-777.48981)"
       x1="12.189733"
       y1="104.61012"
       x2="22.962053"
       y2="109.05134" />
    <linearGradient
       inkscape:collect="always"
       id="linearGradient951">
      <stop
         style="stop-color:#a2a633;stop-opacity:1"
         offset="0"
         id="stop947" />
      <stop
         style="stop-color:#d5d983;stop-opacity:1"
         offset="1"
         id="stop949" />
    </linearGradient>
    <linearGradient
       inkscape:collect="always"
       xlink:href="#linearGradient877"
       id="linearGradient1563"
       gradientUnits="userSpaceOnUse"
       gradientTransform="matrix(2.9037831,0,0,8.8188979,5.7202036,-777.86772)"
       x1="12.189733"
       y1="104.61012"
       x2="22.962053"
       y2="109.05134" />
    <linearGradient
       inkscape:collect="always"
       id="linearGradient877">
      <stop
         style="stop-color:#555936;stop-opacity:1;"
         offset="0"
         id="stop873" />
      <stop
         style="stop-color:#8e9361;stop-opacity:1"
         offset="1"
         id="stop875" />
    </linearGradient>
    <linearGradient
       inkscape:collect="always"
       xlink:href="#linearGradient965"
       id="linearGradient955"
       gradientUnits="userSpaceOnUse"
       gradientTransform="matrix(1.0324563,0,0,8.8188976,145.05675,-777.48982)"
       x1="12.189733"
       y1="104.61012"
       x2="22.962053"
       y2="109.05134" />
    <linearGradient
       id="linearGradient965"
       inkscape:collect="always">
      <stop
         id="stop961"
         offset="0"
         style="stop-color:#f2b138;stop-opacity:1" />
      <stop
         id="stop963"
         offset="1"
         style="stop-color:#f9d99d;stop-opacity:1" />
    </linearGradient>
    <linearGradient
       inkscape:collect="always"
       xlink:href="#linearGradient971"
       id="linearGradient959"
       gradientUnits="userSpaceOnUse"
       gradientTransform="matrix(0.28048783,0,0,2.3333334,70.666291,-108.82049)"
       x1="12.189733"
       y1="104.61012"
       x2="22.962053"
       y2="109.05134" />
    <linearGradient
       id="linearGradient971"
       inkscape:collect="always">
      <stop
         id="stop967"
         offset="0"
         style="stop-color:#f2cd5c;stop-opacity:1" />
      <stop
         id="stop969"
         offset="1"
         style="stop-color:#fbe6b7;stop-opacity:1" />
    </linearGradient>
    <linearGradient
       inkscape:collect="always"
       xlink:href="#linearGradient971"
       id="linearGradient41429"
       gradientUnits="userSpaceOnUse"
       gradientTransform="matrix(0.28048783,0,0,0.29167034,152.02027,98.970389)"
       x1="12.189733"
       y1="104.61012"
       x2="22.962053"
       y2="109.05134" />
    <linearGradient
       inkscape:collect="always"
       xlink:href="#linearGradient971"
       id="linearGradient49253"
       gradientUnits="userSpaceOnUse"
       gradientTransform="matrix(1.9564478,0,0,2.3333334,24.677438,-108.82049)"
       x1="12.189733"
       y1="104.61012"
       x2="22.962053"
       y2="109.05134" />
    <linearGradient
       inkscape:collect="always"
       xlink:href="#linearGradient971"
       id="linearGradient49257"
       gradientUnits="userSpaceOnUse"
       gradientTransform="matrix(1.9564478,0,0,2.3333334,24.677438,-70.644892)"
       x1="12.189733"
       y1="104.61012"
       x2="22.962053"
       y2="109.05134" />
    <filter
       inkscape:collect="always"
       style="color-interpolation-filters:sRGB"
       id="filter51282"
       x="-0.112"
       width="1.224"
       y="-0.0672"
       height="1.1344">
      <feGaussianBlur
         inkscape:collect="always"
         stdDeviation="2.1"
         id="feGaussianBlur51284" />
    </filter>
    <filter
       inkscape:collect="always"
       style="color-interpolation-filters:sRGB"
       id="filter51368"
       x="-0.238875"
       width="1.47775"
       y="-0.05096"
       height="1.10192">
      <feGaussianBlur
         inkscape:collect="always"
         stdDeviation="1.5925"
         id="feGaussianBlur51370" />
    </filter>
    <filter
       inkscape:collect="always"
       style="color-interpolation-filters:sRGB"
       id="filter51418"
       x="-0.238875"
       width="1.47775"
       y="-0.05096"
       height="1.10192">
      <feGaussianBlur
         inkscape:collect="always"
         stdDeviation="1.5925"
         id="feGaussianBlur51420" />
    </filter>
  </defs>
  <sodipodi:namedview
     id="base"
     pagecolor="#ffffff"
     bordercolor="#666666"
     borderopacity="1.0"
     inkscape:pageopacity="0.0"
     inkscape:pageshadow="2"
     inkscape:zoom="0.98994949"
     inkscape:cx="315.9034"
     inkscape:cy="61.569997"
     inkscape:document-units="mm"
     inkscape:current-layer="layer1"
     showgrid="false"
     inkscape:snap-global="false"
     inkscape:window-width="1280"
     inkscape:window-height="996"
     inkscape:window-x="1920"
     inkscape:window-y="0"
     inkscape:window-maximized="1"
     fit-margin-top="3"
     fit-margin-left="3"
     fit-margin-bottom="3"
     fit-margin-right="3" />
  <metadata
     id="metadata39915">
    <rdf:RDF>
      <cc:Work
         rdf:about="">
        <dc:format>image/svg+xml</dc:format>
        <dc:type
           rdf:resource="http://purl.org/dc/dcmitype/StillImage" />
        <dc:title></dc:title>
      </cc:Work>
    </rdf:RDF>
  </metadata>
  <g
     inkscape:label="Calque 1"
     inkscape:groupmode="layer"
     id="layer1"
     transform="translate(-29.610459,-98.628426)">
    <g
       id="g51442">
      <rect
         style="opacity:1;fill:#9a7124;fill-opacity:1;stroke:none;stroke-width:3.01746988;stroke-miterlimit:4;stroke-dasharray:none;stroke-opacity:1;filter:url(#filter51418)"
         id="rect51372"
         width="16"
         height="75"
         x="155.67604"
         y="121.11459" />
      <rect
         style="opacity:1;fill:#818528;fill-opacity:1;stroke:none;stroke-width:3.01747036;stroke-miterlimit:4;stroke-dasharray:none;stroke-opacity:1;filter:url(#filter51368)"
         id="rect51286"
         width="16"
         height="75"
         x="112.20142"
         y="122.19981" />
      <rect
         style="opacity:1;fill:#555936;fill-opacity:1;stroke:none;stroke-width:5.06045198;stroke-miterlimit:4;stroke-dasharray:none;stroke-opacity:1;filter:url(#filter51282)"
         id="rect51226"
         width="45"
         height="75"
         x="34.481346"
         y="121.54919" />
    </g>
    <rect
       style="opacity:1;fill:url(#linearGradient1563);fill-opacity:1;stroke:none;stroke-width:5.06045198;stroke-miterlimit:4;stroke-dasharray:none;stroke-opacity:1"
       id="rect973"
       width="45"
       height="75"
       x="32.610458"
       y="119.6783" />
    <text
       xml:space="preserve"
       style="font-style:normal;font-variant:normal;font-weight:bold;font-stretch:normal;font-size:6.3499999px;line-height:1.25;font-family:sans-serif;-inkscape-font-specification:'sans-serif, Bold';font-variant-ligatures:normal;font-variant-caps:normal;font-variant-numeric:normal;font-feature-settings:normal;text-align:center;letter-spacing:0px;word-spacing:0px;writing-mode:lr-tb;text-anchor:middle;fill:#000000;fill-opacity:1;stroke:none;stroke-width:0.26458332"
       x="54.877914"
       y="111.00615"
       id="text3414"><tspan
         sodipodi:role="line"
         x="54.877914"
         y="111.00615"
         style="font-style:normal;font-variant:normal;font-weight:bold;font-stretch:normal;font-size:6.3499999px;font-family:sans-serif;-inkscape-font-specification:'sans-serif, Bold';font-variant-ligatures:normal;font-variant-caps:normal;font-variant-numeric:normal;font-feature-settings:normal;text-align:center;writing-mode:lr-tb;text-anchor:middle;stroke-width:0.26458332"
         id="tspan3412">Memory</tspan></text>
    <rect
       style="opacity:1;fill:url(#linearGradient991);fill-opacity:1;stroke:none;stroke-width:3.01747036;stroke-miterlimit:4;stroke-dasharray:none;stroke-opacity:1"
       id="rect981"
       width="16"
       height="75"
       x="110.05788"
       y="120.05627" />
    <text
       id="text41372"
       y="111.00615"
       x="117.82533"
       style="font-style:normal;font-variant:normal;font-weight:bold;font-stretch:normal;font-size:6.3499999px;line-height:1.25;font-family:sans-serif;-inkscape-font-specification:'sans-serif, Bold';font-variant-ligatures:normal;font-variant-caps:normal;font-variant-numeric:normal;font-feature-settings:normal;text-align:center;letter-spacing:0px;word-spacing:0px;writing-mode:lr-tb;text-anchor:middle;fill:#000000;fill-opacity:1;stroke:none;stroke-width:0.26458332"
       xml:space="preserve"><tspan
         id="tspan41370"
         style="font-style:normal;font-variant:normal;font-weight:bold;font-stretch:normal;font-size:6.3499999px;font-family:sans-serif;-inkscape-font-specification:'sans-serif, Bold';font-variant-ligatures:normal;font-variant-caps:normal;font-variant-numeric:normal;font-feature-settings:normal;text-align:center;writing-mode:lr-tb;text-anchor:middle;stroke-width:0.26458332"
         y="111.00615"
         x="117.82533"
         sodipodi:role="line">Cache</tspan></text>
    <rect
       style="opacity:1;fill:url(#linearGradient955);fill-opacity:1;stroke:none;stroke-width:3.01746988;stroke-miterlimit:4;stroke-dasharray:none;stroke-opacity:1"
       id="rect953"
       width="16"
       height="75"
       x="154.61772"
       y="120.05627" />
    <text
       xml:space="preserve"
       style="font-style:normal;font-variant:normal;font-weight:bold;font-stretch:normal;font-size:6.3499999px;line-height:1.25;font-family:sans-serif;-inkscape-font-specification:'sans-serif, Bold';font-variant-ligatures:normal;font-variant-caps:normal;font-variant-numeric:normal;font-feature-settings:normal;text-align:center;letter-spacing:0px;word-spacing:0px;writing-mode:lr-tb;text-anchor:middle;fill:#000000;fill-opacity:1;stroke:none;stroke-width:0.26458332"
       x="161.19447"
       y="106.34132"
       id="text41376"><tspan
         sodipodi:role="line"
         x="162.29828"
         y="106.34132"
         style="font-style:normal;font-variant:normal;font-weight:bold;font-stretch:normal;font-size:6.3499999px;font-family:sans-serif;-inkscape-font-specification:'sans-serif, Bold';font-variant-ligatures:normal;font-variant-caps:normal;font-variant-numeric:normal;font-feature-settings:normal;text-align:center;writing-mode:lr-tb;text-anchor:middle;stroke-width:0.26458332"
         id="tspan41374">CPU </tspan><tspan
         sodipodi:role="line"
         x="161.19447"
         y="114.27882"
         style="font-style:normal;font-variant:normal;font-weight:bold;font-stretch:normal;font-size:6.3499999px;font-family:sans-serif;-inkscape-font-specification:'sans-serif, Bold';font-variant-ligatures:normal;font-variant-caps:normal;font-variant-numeric:normal;font-feature-settings:normal;text-align:center;writing-mode:lr-tb;text-anchor:middle;stroke-width:0.26458332"
         id="tspan41378">registers</tspan></text>
    <rect
       style="opacity:1;fill:url(#linearGradient41429);fill-opacity:1;stroke:none;stroke-width:0.28602445;stroke-miterlimit:4;stroke-dasharray:none;stroke-opacity:1"
       id="rect41427"
       width="4.3467269"
       height="2.4805"
       x="154.61772"
       y="128.65523" />
    <rect
       style="opacity:1;fill:url(#linearGradient49253);fill-opacity:1;stroke:none;stroke-width:2.13659644;stroke-miterlimit:4;stroke-dasharray:none;stroke-opacity:1"
       id="rect49251"
       width="30.319118"
       height="19.84375"
       x="42.795006"
       y="128.65523" />
    <rect
       y="166.83083"
       x="42.795006"
       height="19.84375"
       width="30.319118"
       id="rect49255"
       style="opacity:1;fill:url(#linearGradient49257);fill-opacity:1;stroke:none;stroke-width:2.13659644;stroke-miterlimit:4;stroke-dasharray:none;stroke-opacity:1" />
    <text
       xml:space="preserve"
       style="font-style:normal;font-variant:normal;font-weight:bold;font-stretch:normal;font-size:6.3499999px;line-height:1.25;font-family:sans-serif;-inkscape-font-specification:'sans-serif, Bold';font-variant-ligatures:normal;font-variant-caps:normal;font-variant-numeric:normal;font-feature-settings:normal;text-align:center;letter-spacing:0px;word-spacing:0px;writing-mode:lr-tb;text-anchor:middle;fill:#000000;fill-opacity:1;stroke:none;stroke-width:0.26458332"
       x="57.953014"
       y="179.06729"
       id="text49261"><tspan
         sodipodi:role="line"
         x="57.953014"
         y="179.06729"
         style="font-style:normal;font-variant:normal;font-weight:bold;font-stretch:normal;font-size:6.3499999px;font-family:sans-serif;-inkscape-font-specification:'sans-serif, Bold';font-variant-ligatures:normal;font-variant-caps:normal;font-variant-numeric:normal;font-feature-settings:normal;text-align:center;writing-mode:lr-tb;text-anchor:middle;stroke-width:0.26458332"
         id="tspan49259">A</tspan></text>
    <text
       id="text49265"
       y="140.89169"
       x="57.884804"
       style="font-style:normal;font-variant:normal;font-weight:bold;font-stretch:normal;font-size:6.3499999px;line-height:1.25;font-family:sans-serif;-inkscape-font-specification:'sans-serif, Bold';font-variant-ligatures:normal;font-variant-caps:normal;font-variant-numeric:normal;font-feature-settings:normal;text-align:center;letter-spacing:0px;word-spacing:0px;writing-mode:lr-tb;text-anchor:middle;fill:#000000;fill-opacity:1;stroke:none;stroke-width:0.26458332"
       xml:space="preserve"><tspan
         id="tspan49263"
         style="font-style:normal;font-variant:normal;font-weight:bold;font-stretch:normal;font-size:6.3499999px;font-family:sans-serif;-inkscape-font-specification:'sans-serif, Bold';font-variant-ligatures:normal;font-variant-caps:normal;font-variant-numeric:normal;font-feature-settings:normal;text-align:center;writing-mode:lr-tb;text-anchor:middle;stroke-width:0.26458332"
         y="140.89169"
         x="57.884804"
         sodipodi:role="line">B</tspan></text>
    <text
       id="text49310"
       y="167.32027"
       x="160.19537"
       style="font-style:normal;font-weight:normal;font-size:10.58333302px;line-height:1.25;font-family:sans-serif;text-align:center;letter-spacing:0px;word-spacing:0px;text-anchor:middle;fill:#000000;fill-opacity:1;stroke:none;stroke-width:0.26458332"
       xml:space="preserve"><tspan
         id="tspan49308"
         style="font-style:normal;font-variant:normal;font-weight:normal;font-stretch:normal;font-size:6.3499999px;font-family:sans-serif;-inkscape-font-specification:'sans-serif, Normal';font-variant-ligatures:normal;font-variant-caps:normal;font-variant-numeric:normal;font-feature-settings:normal;text-align:center;writing-mode:lr-tb;text-anchor:middle;stroke-width:0.26458332"
         y="167.32027"
         x="160.19537"
         sodipodi:role="line">LOAD B(1)</tspan></text>
    <text
       xml:space="preserve"
       style="font-style:normal;font-variant:normal;font-weight:bold;font-stretch:normal;font-size:4.23333311px;line-height:1.25;font-family:sans-serif;-inkscape-font-specification:'sans-serif, Bold';font-variant-ligatures:normal;font-variant-caps:normal;font-variant-numeric:normal;font-feature-settings:normal;text-align:center;letter-spacing:0px;word-spacing:0px;writing-mode:lr-tb;text-anchor:middle;fill:#d52e4d;fill-opacity:1;stroke:none;stroke-width:0.26458332"
       x="160.32353"
       y="174.26929"
       id="text49353"><tspan
         sodipodi:role="line"
         x="160.32353"
         y="174.26929"
         style="font-style:normal;font-variant:normal;font-weight:bold;font-stretch:normal;font-size:4.23333311px;font-family:sans-serif;-inkscape-font-specification:'sans-serif, Bold';font-variant-ligatures:normal;font-variant-caps:normal;font-variant-numeric:normal;font-feature-settings:normal;text-align:center;writing-mode:lr-tb;text-anchor:middle;fill:#d52e4d;fill-opacity:1;stroke-width:0.26458332"
         id="tspan49351">Cache miss !</tspan></text>
  </g>
</svg>
