<?xml version="1.0" encoding="UTF-8" standalone="no"?>
<!-- Created with matplotlib (http://matplotlib.org/) -->

<svg
   xmlns:dc="http://purl.org/dc/elements/1.1/"
   xmlns:cc="http://creativecommons.org/ns#"
   xmlns:rdf="http://www.w3.org/1999/02/22-rdf-syntax-ns#"
   xmlns:svg="http://www.w3.org/2000/svg"
   xmlns="http://www.w3.org/2000/svg"
   xmlns:xlink="http://www.w3.org/1999/xlink"
   xmlns:sodipodi="http://sodipodi.sourceforge.net/DTD/sodipodi-0.dtd"
   xmlns:inkscape="http://www.inkscape.org/namespaces/inkscape"
   height="345pt"
   version="1.1"
   viewBox="0 0 460 345"
   width="460pt"
   id="svg1057"
   sodipodi:docname="roof_skylake_mem_compute.svg"
   inkscape:version="0.92.3 (2405546, 2018-03-11)">
  <metadata
     id="metadata1061">
    <rdf:RDF>
      <cc:Work
         rdf:about="">
        <dc:format>image/svg+xml</dc:format>
        <dc:type
           rdf:resource="http://purl.org/dc/dcmitype/StillImage" />
        <dc:title></dc:title>
      </cc:Work>
    </rdf:RDF>
  </metadata>
  <sodipodi:namedview
     pagecolor="#ffffff"
     bordercolor="#666666"
     borderopacity="1"
     objecttolerance="10"
     gridtolerance="10"
     guidetolerance="10"
     inkscape:pageopacity="0"
     inkscape:pageshadow="2"
     inkscape:window-width="1920"
     inkscape:window-height="1052"
     id="namedview1059"
     showgrid="false"
     inkscape:zoom="1.4511061"
     inkscape:cx="224.17334"
     inkscape:cy="249.26596"
     inkscape:window-x="0"
     inkscape:window-y="0"
     inkscape:window-maximized="1"
     inkscape:current-layer="svg1057" />
  <defs
     id="defs4">
    <style
       type="text/css"
       id="style2">
*{stroke-linecap:butt;stroke-linejoin:round;}
  </style>
  </defs>
  <g
     id="figure_1">
    <g
       id="patch_1">
      <path
         d="M 0 345.6  L 460.8 345.6  L 460.8 0  L 0 0  z "
         style="fill:#ffffff;"
         id="path6" />
    </g>
    <g
       id="axes_1">
      <g
         id="patch_2">
        <path
           d="M 57.6 307.584  L 414.72 307.584  L 414.72 41.472  L 57.6 41.472  z "
           style="fill:#ffffff;"
           id="path9" />
      </g>
      <g
         id="matplotlib.axis_1">
        <g
           id="xtick_1">
          <g
             id="line2d_1">
            <defs
               id="defs13">
              <path
                 d="M 0 0  L 0 3.5  "
                 id="mc24c1a5fc5"
                 style="stroke:#000000;stroke-width:0.8;" />
            </defs>
            <g
               id="g17">
              <use
                 style="stroke:#000000;stroke-width:0.8;"
                 x="73.832727"
                 xlink:href="#mc24c1a5fc5"
                 y="307.584"
                 id="use15" />
            </g>
          </g>
          <g
             id="text_1">
            <!-- $\mathdefault{10^{-3}}$ -->
            <defs
               id="defs24">
              <path
                 d="M 12.40625 8.296875  L 28.515625 8.296875  L 28.515625 63.921875  L 10.984375 60.40625  L 10.984375 69.390625  L 28.421875 72.90625  L 38.28125 72.90625  L 38.28125 8.296875  L 54.390625 8.296875  L 54.390625 0  L 12.40625 0  z "
                 id="DejaVuSans-31" />
              <path
                 d="M 31.78125 66.40625  Q 24.171875 66.40625 20.328125 58.90625  Q 16.5 51.421875 16.5 36.375  Q 16.5 21.390625 20.328125 13.890625  Q 24.171875 6.390625 31.78125 6.390625  Q 39.453125 6.390625 43.28125 13.890625  Q 47.125 21.390625 47.125 36.375  Q 47.125 51.421875 43.28125 58.90625  Q 39.453125 66.40625 31.78125 66.40625  z M 31.78125 74.21875  Q 44.046875 74.21875 50.515625 64.515625  Q 56.984375 54.828125 56.984375 36.375  Q 56.984375 17.96875 50.515625 8.265625  Q 44.046875 -1.421875 31.78125 -1.421875  Q 19.53125 -1.421875 13.0625 8.265625  Q 6.59375 17.96875 6.59375 36.375  Q 6.59375 54.828125 13.0625 64.515625  Q 19.53125 74.21875 31.78125 74.21875  z "
                 id="DejaVuSans-30" />
              <path
                 d="M 10.59375 35.5  L 73.1875 35.5  L 73.1875 27.203125  L 10.59375 27.203125  z "
                 id="DejaVuSans-2212" />
              <path
                 d="M 40.578125 39.3125  Q 47.65625 37.796875 51.625 33  Q 55.609375 28.21875 55.609375 21.1875  Q 55.609375 10.40625 48.1875 4.484375  Q 40.765625 -1.421875 27.09375 -1.421875  Q 22.515625 -1.421875 17.65625 -0.515625  Q 12.796875 0.390625 7.625 2.203125  L 7.625 11.71875  Q 11.71875 9.328125 16.59375 8.109375  Q 21.484375 6.890625 26.8125 6.890625  Q 36.078125 6.890625 40.9375 10.546875  Q 45.796875 14.203125 45.796875 21.1875  Q 45.796875 27.640625 41.28125 31.265625  Q 36.765625 34.90625 28.71875 34.90625  L 20.21875 34.90625  L 20.21875 43.015625  L 29.109375 43.015625  Q 36.375 43.015625 40.234375 45.921875  Q 44.09375 48.828125 44.09375 54.296875  Q 44.09375 59.90625 40.109375 62.90625  Q 36.140625 65.921875 28.71875 65.921875  Q 24.65625 65.921875 20.015625 65.03125  Q 15.375 64.15625 9.8125 62.3125  L 9.8125 71.09375  Q 15.4375 72.65625 20.34375 73.4375  Q 25.25 74.21875 29.59375 74.21875  Q 40.828125 74.21875 47.359375 69.109375  Q 53.90625 64.015625 53.90625 55.328125  Q 53.90625 49.265625 50.4375 45.09375  Q 46.96875 40.921875 40.578125 39.3125  z "
                 id="DejaVuSans-33" />
            </defs>
            <g
               transform="translate(62.082727 322.182437)scale(0.1 -0.1)"
               id="g34">
              <use
                 transform="translate(0 0.765625)"
                 xlink:href="#DejaVuSans-31"
                 id="use26" />
              <use
                 transform="translate(63.623047 0.765625)"
                 xlink:href="#DejaVuSans-30"
                 id="use28" />
              <use
                 transform="translate(128.203125 39.046875)scale(0.7)"
                 xlink:href="#DejaVuSans-2212"
                 id="use30" />
              <use
                 transform="translate(186.855469 39.046875)scale(0.7)"
                 xlink:href="#DejaVuSans-33"
                 id="use32" />
            </g>
          </g>
        </g>
        <g
           id="xtick_2">
          <g
             id="line2d_2">
            <g
               id="g40">
              <use
                 style="stroke:#000000;stroke-width:0.8;"
                 x="120.211948"
                 xlink:href="#mc24c1a5fc5"
                 y="307.584"
                 id="use38" />
            </g>
          </g>
          <g
             id="text_2">
            <!-- $\mathdefault{10^{-2}}$ -->
            <defs
               id="defs44">
              <path
                 d="M 19.1875 8.296875  L 53.609375 8.296875  L 53.609375 0  L 7.328125 0  L 7.328125 8.296875  Q 12.9375 14.109375 22.625 23.890625  Q 32.328125 33.6875 34.8125 36.53125  Q 39.546875 41.84375 41.421875 45.53125  Q 43.3125 49.21875 43.3125 52.78125  Q 43.3125 58.59375 39.234375 62.25  Q 35.15625 65.921875 28.609375 65.921875  Q 23.96875 65.921875 18.8125 64.3125  Q 13.671875 62.703125 7.8125 59.421875  L 7.8125 69.390625  Q 13.765625 71.78125 18.9375 73  Q 24.125 74.21875 28.421875 74.21875  Q 39.75 74.21875 46.484375 68.546875  Q 53.21875 62.890625 53.21875 53.421875  Q 53.21875 48.921875 51.53125 44.890625  Q 49.859375 40.875 45.40625 35.40625  Q 44.1875 33.984375 37.640625 27.21875  Q 31.109375 20.453125 19.1875 8.296875  z "
                 id="DejaVuSans-32" />
            </defs>
            <g
               transform="translate(108.461948 322.182437)scale(0.1 -0.1)"
               id="g54">
              <use
                 transform="translate(0 0.765625)"
                 xlink:href="#DejaVuSans-31"
                 id="use46" />
              <use
                 transform="translate(63.623047 0.765625)"
                 xlink:href="#DejaVuSans-30"
                 id="use48" />
              <use
                 transform="translate(128.203125 39.046875)scale(0.7)"
                 xlink:href="#DejaVuSans-2212"
                 id="use50" />
              <use
                 transform="translate(186.855469 39.046875)scale(0.7)"
                 xlink:href="#DejaVuSans-32"
                 id="use52" />
            </g>
          </g>
        </g>
        <g
           id="xtick_3">
          <g
             id="line2d_3">
            <g
               id="g60">
              <use
                 style="stroke:#000000;stroke-width:0.8;"
                 x="166.591169"
                 xlink:href="#mc24c1a5fc5"
                 y="307.584"
                 id="use58" />
            </g>
          </g>
          <g
             id="text_3">
            <!-- $\mathdefault{10^{-1}}$ -->
            <g
               transform="translate(154.841169 322.182437)scale(0.1 -0.1)"
               id="g71">
              <use
                 transform="translate(0 0.684375)"
                 xlink:href="#DejaVuSans-31"
                 id="use63" />
              <use
                 transform="translate(63.623047 0.684375)"
                 xlink:href="#DejaVuSans-30"
                 id="use65" />
              <use
                 transform="translate(128.203125 38.965625)scale(0.7)"
                 xlink:href="#DejaVuSans-2212"
                 id="use67" />
              <use
                 transform="translate(186.855469 38.965625)scale(0.7)"
                 xlink:href="#DejaVuSans-31"
                 id="use69" />
            </g>
          </g>
        </g>
        <g
           id="xtick_4">
          <g
             id="line2d_4">
            <g
               id="g77">
              <use
                 style="stroke:#000000;stroke-width:0.8;"
                 x="212.97039"
                 xlink:href="#mc24c1a5fc5"
                 y="307.584"
                 id="use75" />
            </g>
          </g>
          <g
             id="text_4">
            <!-- $\mathdefault{10^{0}}$ -->
            <g
               transform="translate(204.17039 322.182437)scale(0.1 -0.1)"
               id="g86">
              <use
                 transform="translate(0 0.765625)"
                 xlink:href="#DejaVuSans-31"
                 id="use80" />
              <use
                 transform="translate(63.623047 0.765625)"
                 xlink:href="#DejaVuSans-30"
                 id="use82" />
              <use
                 transform="translate(128.203125 39.046875)scale(0.7)"
                 xlink:href="#DejaVuSans-30"
                 id="use84" />
            </g>
          </g>
        </g>
        <g
           id="xtick_5">
          <g
             id="line2d_5">
            <g
               id="g92">
              <use
                 style="stroke:#000000;stroke-width:0.8;"
                 x="259.34961"
                 xlink:href="#mc24c1a5fc5"
                 y="307.584"
                 id="use90" />
            </g>
          </g>
          <g
             id="text_5">
            <!-- $\mathdefault{10^{1}}$ -->
            <g
               transform="translate(250.54961 322.182437)scale(0.1 -0.1)"
               id="g101">
              <use
                 transform="translate(0 0.684375)"
                 xlink:href="#DejaVuSans-31"
                 id="use95" />
              <use
                 transform="translate(63.623047 0.684375)"
                 xlink:href="#DejaVuSans-30"
                 id="use97" />
              <use
                 transform="translate(128.203125 38.965625)scale(0.7)"
                 xlink:href="#DejaVuSans-31"
                 id="use99" />
            </g>
          </g>
        </g>
        <g
           id="xtick_6">
          <g
             id="line2d_6">
            <g
               id="g107">
              <use
                 style="stroke:#000000;stroke-width:0.8;"
                 x="305.728831"
                 xlink:href="#mc24c1a5fc5"
                 y="307.584"
                 id="use105" />
            </g>
          </g>
          <g
             id="text_6">
            <!-- $\mathdefault{10^{2}}$ -->
            <g
               transform="translate(296.928831 322.182437)scale(0.1 -0.1)"
               id="g116">
              <use
                 transform="translate(0 0.765625)"
                 xlink:href="#DejaVuSans-31"
                 id="use110" />
              <use
                 transform="translate(63.623047 0.765625)"
                 xlink:href="#DejaVuSans-30"
                 id="use112" />
              <use
                 transform="translate(128.203125 39.046875)scale(0.7)"
                 xlink:href="#DejaVuSans-32"
                 id="use114" />
            </g>
          </g>
        </g>
        <g
           id="xtick_7">
          <g
             id="line2d_7">
            <g
               id="g122">
              <use
                 style="stroke:#000000;stroke-width:0.8;"
                 x="352.108052"
                 xlink:href="#mc24c1a5fc5"
                 y="307.584"
                 id="use120" />
            </g>
          </g>
          <g
             id="text_7">
            <!-- $\mathdefault{10^{3}}$ -->
            <g
               transform="translate(343.308052 322.182437)scale(0.1 -0.1)"
               id="g131">
              <use
                 transform="translate(0 0.765625)"
                 xlink:href="#DejaVuSans-31"
                 id="use125" />
              <use
                 transform="translate(63.623047 0.765625)"
                 xlink:href="#DejaVuSans-30"
                 id="use127" />
              <use
                 transform="translate(128.203125 39.046875)scale(0.7)"
                 xlink:href="#DejaVuSans-33"
                 id="use129" />
            </g>
          </g>
        </g>
        <g
           id="xtick_8">
          <g
             id="line2d_8">
            <g
               id="g137">
              <use
                 style="stroke:#000000;stroke-width:0.8;"
                 x="398.487273"
                 xlink:href="#mc24c1a5fc5"
                 y="307.584"
                 id="use135" />
            </g>
          </g>
          <g
             id="text_8">
            <!-- $\mathdefault{10^{4}}$ -->
            <defs
               id="defs141">
              <path
                 d="M 37.796875 64.3125  L 12.890625 25.390625  L 37.796875 25.390625  z M 35.203125 72.90625  L 47.609375 72.90625  L 47.609375 25.390625  L 58.015625 25.390625  L 58.015625 17.1875  L 47.609375 17.1875  L 47.609375 0  L 37.796875 0  L 37.796875 17.1875  L 4.890625 17.1875  L 4.890625 26.703125  z "
                 id="DejaVuSans-34" />
            </defs>
            <g
               transform="translate(389.687273 322.182437)scale(0.1 -0.1)"
               id="g149">
              <use
                 transform="translate(0 0.684375)"
                 xlink:href="#DejaVuSans-31"
                 id="use143" />
              <use
                 transform="translate(63.623047 0.684375)"
                 xlink:href="#DejaVuSans-30"
                 id="use145" />
              <use
                 transform="translate(128.203125 38.965625)scale(0.7)"
                 xlink:href="#DejaVuSans-34"
                 id="use147" />
            </g>
          </g>
        </g>
        <g
           id="xtick_9">
          <g
             id="line2d_9">
            <defs
               id="defs154">
              <path
                 d="M 0 0  L 0 2  "
                 id="m9b817e345f"
                 style="stroke:#000000;stroke-width:0.6;" />
            </defs>
            <g
               id="g158">
              <use
                 style="stroke:#000000;stroke-width:0.6;"
                 x="59.871191"
                 xlink:href="#m9b817e345f"
                 y="307.584"
                 id="use156" />
            </g>
          </g>
        </g>
        <g
           id="xtick_10">
          <g
             id="line2d_10">
            <g
               id="g164">
              <use
                 style="stroke:#000000;stroke-width:0.6;"
                 x="63.543555"
                 xlink:href="#m9b817e345f"
                 y="307.584"
                 id="use162" />
            </g>
          </g>
        </g>
        <g
           id="xtick_11">
          <g
             id="line2d_11">
            <g
               id="g170">
              <use
                 style="stroke:#000000;stroke-width:0.6;"
                 x="66.648495"
                 xlink:href="#m9b817e345f"
                 y="307.584"
                 id="use168" />
            </g>
          </g>
        </g>
        <g
           id="xtick_12">
          <g
             id="line2d_12">
            <g
               id="g176">
              <use
                 style="stroke:#000000;stroke-width:0.6;"
                 x="69.338116"
                 xlink:href="#m9b817e345f"
                 y="307.584"
                 id="use174" />
            </g>
          </g>
        </g>
        <g
           id="xtick_13">
          <g
             id="line2d_13">
            <g
               id="g182">
              <use
                 style="stroke:#000000;stroke-width:0.6;"
                 x="71.710531"
                 xlink:href="#m9b817e345f"
                 y="307.584"
                 id="use180" />
            </g>
          </g>
        </g>
        <g
           id="xtick_14">
          <g
             id="line2d_14">
            <g
               id="g188">
              <use
                 style="stroke:#000000;stroke-width:0.6;"
                 x="87.794264"
                 xlink:href="#m9b817e345f"
                 y="307.584"
                 id="use186" />
            </g>
          </g>
        </g>
        <g
           id="xtick_15">
          <g
             id="line2d_15">
            <g
               id="g194">
              <use
                 style="stroke:#000000;stroke-width:0.6;"
                 x="95.961239"
                 xlink:href="#m9b817e345f"
                 y="307.584"
                 id="use192" />
            </g>
          </g>
        </g>
        <g
           id="xtick_16">
          <g
             id="line2d_16">
            <g
               id="g200">
              <use
                 style="stroke:#000000;stroke-width:0.6;"
                 x="101.755801"
                 xlink:href="#m9b817e345f"
                 y="307.584"
                 id="use198" />
            </g>
          </g>
        </g>
        <g
           id="xtick_17">
          <g
             id="line2d_17">
            <g
               id="g206">
              <use
                 style="stroke:#000000;stroke-width:0.6;"
                 x="106.250411"
                 xlink:href="#m9b817e345f"
                 y="307.584"
                 id="use204" />
            </g>
          </g>
        </g>
        <g
           id="xtick_18">
          <g
             id="line2d_18">
            <g
               id="g212">
              <use
                 style="stroke:#000000;stroke-width:0.6;"
                 x="109.922776"
                 xlink:href="#m9b817e345f"
                 y="307.584"
                 id="use210" />
            </g>
          </g>
        </g>
        <g
           id="xtick_19">
          <g
             id="line2d_19">
            <g
               id="g218">
              <use
                 style="stroke:#000000;stroke-width:0.6;"
                 x="113.027716"
                 xlink:href="#m9b817e345f"
                 y="307.584"
                 id="use216" />
            </g>
          </g>
        </g>
        <g
           id="xtick_20">
          <g
             id="line2d_20">
            <g
               id="g224">
              <use
                 style="stroke:#000000;stroke-width:0.6;"
                 x="115.717337"
                 xlink:href="#m9b817e345f"
                 y="307.584"
                 id="use222" />
            </g>
          </g>
        </g>
        <g
           id="xtick_21">
          <g
             id="line2d_21">
            <g
               id="g230">
              <use
                 style="stroke:#000000;stroke-width:0.6;"
                 x="118.089751"
                 xlink:href="#m9b817e345f"
                 y="307.584"
                 id="use228" />
            </g>
          </g>
        </g>
        <g
           id="xtick_22">
          <g
             id="line2d_22">
            <g
               id="g236">
              <use
                 style="stroke:#000000;stroke-width:0.6;"
                 x="134.173485"
                 xlink:href="#m9b817e345f"
                 y="307.584"
                 id="use234" />
            </g>
          </g>
        </g>
        <g
           id="xtick_23">
          <g
             id="line2d_23">
            <g
               id="g242">
              <use
                 style="stroke:#000000;stroke-width:0.6;"
                 x="142.34046"
                 xlink:href="#m9b817e345f"
                 y="307.584"
                 id="use240" />
            </g>
          </g>
        </g>
        <g
           id="xtick_24">
          <g
             id="line2d_24">
            <g
               id="g248">
              <use
                 style="stroke:#000000;stroke-width:0.6;"
                 x="148.135021"
                 xlink:href="#m9b817e345f"
                 y="307.584"
                 id="use246" />
            </g>
          </g>
        </g>
        <g
           id="xtick_25">
          <g
             id="line2d_25">
            <g
               id="g254">
              <use
                 style="stroke:#000000;stroke-width:0.6;"
                 x="152.629632"
                 xlink:href="#m9b817e345f"
                 y="307.584"
                 id="use252" />
            </g>
          </g>
        </g>
        <g
           id="xtick_26">
          <g
             id="line2d_26">
            <g
               id="g260">
              <use
                 style="stroke:#000000;stroke-width:0.6;"
                 x="156.301997"
                 xlink:href="#m9b817e345f"
                 y="307.584"
                 id="use258" />
            </g>
          </g>
        </g>
        <g
           id="xtick_27">
          <g
             id="line2d_27">
            <g
               id="g266">
              <use
                 style="stroke:#000000;stroke-width:0.6;"
                 x="159.406937"
                 xlink:href="#m9b817e345f"
                 y="307.584"
                 id="use264" />
            </g>
          </g>
        </g>
        <g
           id="xtick_28">
          <g
             id="line2d_28">
            <g
               id="g272">
              <use
                 style="stroke:#000000;stroke-width:0.6;"
                 x="162.096558"
                 xlink:href="#m9b817e345f"
                 y="307.584"
                 id="use270" />
            </g>
          </g>
        </g>
        <g
           id="xtick_29">
          <g
             id="line2d_29">
            <g
               id="g278">
              <use
                 style="stroke:#000000;stroke-width:0.6;"
                 x="164.468972"
                 xlink:href="#m9b817e345f"
                 y="307.584"
                 id="use276" />
            </g>
          </g>
        </g>
        <g
           id="xtick_30">
          <g
             id="line2d_30">
            <g
               id="g284">
              <use
                 style="stroke:#000000;stroke-width:0.6;"
                 x="180.552705"
                 xlink:href="#m9b817e345f"
                 y="307.584"
                 id="use282" />
            </g>
          </g>
        </g>
        <g
           id="xtick_31">
          <g
             id="line2d_31">
            <g
               id="g290">
              <use
                 style="stroke:#000000;stroke-width:0.6;"
                 x="188.719681"
                 xlink:href="#m9b817e345f"
                 y="307.584"
                 id="use288" />
            </g>
          </g>
        </g>
        <g
           id="xtick_32">
          <g
             id="line2d_32">
            <g
               id="g296">
              <use
                 style="stroke:#000000;stroke-width:0.6;"
                 x="194.514242"
                 xlink:href="#m9b817e345f"
                 y="307.584"
                 id="use294" />
            </g>
          </g>
        </g>
        <g
           id="xtick_33">
          <g
             id="line2d_33">
            <g
               id="g302">
              <use
                 style="stroke:#000000;stroke-width:0.6;"
                 x="199.008853"
                 xlink:href="#m9b817e345f"
                 y="307.584"
                 id="use300" />
            </g>
          </g>
        </g>
        <g
           id="xtick_34">
          <g
             id="line2d_34">
            <g
               id="g308">
              <use
                 style="stroke:#000000;stroke-width:0.6;"
                 x="202.681217"
                 xlink:href="#m9b817e345f"
                 y="307.584"
                 id="use306" />
            </g>
          </g>
        </g>
        <g
           id="xtick_35">
          <g
             id="line2d_35">
            <g
               id="g314">
              <use
                 style="stroke:#000000;stroke-width:0.6;"
                 x="205.786157"
                 xlink:href="#m9b817e345f"
                 y="307.584"
                 id="use312" />
            </g>
          </g>
        </g>
        <g
           id="xtick_36">
          <g
             id="line2d_36">
            <g
               id="g320">
              <use
                 style="stroke:#000000;stroke-width:0.6;"
                 x="208.475779"
                 xlink:href="#m9b817e345f"
                 y="307.584"
                 id="use318" />
            </g>
          </g>
        </g>
        <g
           id="xtick_37">
          <g
             id="line2d_37">
            <g
               id="g326">
              <use
                 style="stroke:#000000;stroke-width:0.6;"
                 x="210.848193"
                 xlink:href="#m9b817e345f"
                 y="307.584"
                 id="use324" />
            </g>
          </g>
        </g>
        <g
           id="xtick_38">
          <g
             id="line2d_38">
            <g
               id="g332">
              <use
                 style="stroke:#000000;stroke-width:0.6;"
                 x="226.931926"
                 xlink:href="#m9b817e345f"
                 y="307.584"
                 id="use330" />
            </g>
          </g>
        </g>
        <g
           id="xtick_39">
          <g
             id="line2d_39">
            <g
               id="g338">
              <use
                 style="stroke:#000000;stroke-width:0.6;"
                 x="235.098902"
                 xlink:href="#m9b817e345f"
                 y="307.584"
                 id="use336" />
            </g>
          </g>
        </g>
        <g
           id="xtick_40">
          <g
             id="line2d_40">
            <g
               id="g344">
              <use
                 style="stroke:#000000;stroke-width:0.6;"
                 x="240.893463"
                 xlink:href="#m9b817e345f"
                 y="307.584"
                 id="use342" />
            </g>
          </g>
        </g>
        <g
           id="xtick_41">
          <g
             id="line2d_41">
            <g
               id="g350">
              <use
                 style="stroke:#000000;stroke-width:0.6;"
                 x="245.388074"
                 xlink:href="#m9b817e345f"
                 y="307.584"
                 id="use348" />
            </g>
          </g>
        </g>
        <g
           id="xtick_42">
          <g
             id="line2d_42">
            <g
               id="g356">
              <use
                 style="stroke:#000000;stroke-width:0.6;"
                 x="249.060438"
                 xlink:href="#m9b817e345f"
                 y="307.584"
                 id="use354" />
            </g>
          </g>
        </g>
        <g
           id="xtick_43">
          <g
             id="line2d_43">
            <g
               id="g362">
              <use
                 style="stroke:#000000;stroke-width:0.6;"
                 x="252.165378"
                 xlink:href="#m9b817e345f"
                 y="307.584"
                 id="use360" />
            </g>
          </g>
        </g>
        <g
           id="xtick_44">
          <g
             id="line2d_44">
            <g
               id="g368">
              <use
                 style="stroke:#000000;stroke-width:0.6;"
                 x="254.855"
                 xlink:href="#m9b817e345f"
                 y="307.584"
                 id="use366" />
            </g>
          </g>
        </g>
        <g
           id="xtick_45">
          <g
             id="line2d_45">
            <g
               id="g374">
              <use
                 style="stroke:#000000;stroke-width:0.6;"
                 x="257.227414"
                 xlink:href="#m9b817e345f"
                 y="307.584"
                 id="use372" />
            </g>
          </g>
        </g>
        <g
           id="xtick_46">
          <g
             id="line2d_46">
            <g
               id="g380">
              <use
                 style="stroke:#000000;stroke-width:0.6;"
                 x="273.311147"
                 xlink:href="#m9b817e345f"
                 y="307.584"
                 id="use378" />
            </g>
          </g>
        </g>
        <g
           id="xtick_47">
          <g
             id="line2d_47">
            <g
               id="g386">
              <use
                 style="stroke:#000000;stroke-width:0.6;"
                 x="281.478122"
                 xlink:href="#m9b817e345f"
                 y="307.584"
                 id="use384" />
            </g>
          </g>
        </g>
        <g
           id="xtick_48">
          <g
             id="line2d_48">
            <g
               id="g392">
              <use
                 style="stroke:#000000;stroke-width:0.6;"
                 x="287.272684"
                 xlink:href="#m9b817e345f"
                 y="307.584"
                 id="use390" />
            </g>
          </g>
        </g>
        <g
           id="xtick_49">
          <g
             id="line2d_49">
            <g
               id="g398">
              <use
                 style="stroke:#000000;stroke-width:0.6;"
                 x="291.767295"
                 xlink:href="#m9b817e345f"
                 y="307.584"
                 id="use396" />
            </g>
          </g>
        </g>
        <g
           id="xtick_50">
          <g
             id="line2d_50">
            <g
               id="g404">
              <use
                 style="stroke:#000000;stroke-width:0.6;"
                 x="295.439659"
                 xlink:href="#m9b817e345f"
                 y="307.584"
                 id="use402" />
            </g>
          </g>
        </g>
        <g
           id="xtick_51">
          <g
             id="line2d_51">
            <g
               id="g410">
              <use
                 style="stroke:#000000;stroke-width:0.6;"
                 x="298.544599"
                 xlink:href="#m9b817e345f"
                 y="307.584"
                 id="use408" />
            </g>
          </g>
        </g>
        <g
           id="xtick_52">
          <g
             id="line2d_52">
            <g
               id="g416">
              <use
                 style="stroke:#000000;stroke-width:0.6;"
                 x="301.23422"
                 xlink:href="#m9b817e345f"
                 y="307.584"
                 id="use414" />
            </g>
          </g>
        </g>
        <g
           id="xtick_53">
          <g
             id="line2d_53">
            <g
               id="g422">
              <use
                 style="stroke:#000000;stroke-width:0.6;"
                 x="303.606634"
                 xlink:href="#m9b817e345f"
                 y="307.584"
                 id="use420" />
            </g>
          </g>
        </g>
        <g
           id="xtick_54">
          <g
             id="line2d_54">
            <g
               id="g428">
              <use
                 style="stroke:#000000;stroke-width:0.6;"
                 x="319.690368"
                 xlink:href="#m9b817e345f"
                 y="307.584"
                 id="use426" />
            </g>
          </g>
        </g>
        <g
           id="xtick_55">
          <g
             id="line2d_55">
            <g
               id="g434">
              <use
                 style="stroke:#000000;stroke-width:0.6;"
                 x="327.857343"
                 xlink:href="#m9b817e345f"
                 y="307.584"
                 id="use432" />
            </g>
          </g>
        </g>
        <g
           id="xtick_56">
          <g
             id="line2d_56">
            <g
               id="g440">
              <use
                 style="stroke:#000000;stroke-width:0.6;"
                 x="333.651904"
                 xlink:href="#m9b817e345f"
                 y="307.584"
                 id="use438" />
            </g>
          </g>
        </g>
        <g
           id="xtick_57">
          <g
             id="line2d_57">
            <g
               id="g446">
              <use
                 style="stroke:#000000;stroke-width:0.6;"
                 x="338.146515"
                 xlink:href="#m9b817e345f"
                 y="307.584"
                 id="use444" />
            </g>
          </g>
        </g>
        <g
           id="xtick_58">
          <g
             id="line2d_58">
            <g
               id="g452">
              <use
                 style="stroke:#000000;stroke-width:0.6;"
                 x="341.81888"
                 xlink:href="#m9b817e345f"
                 y="307.584"
                 id="use450" />
            </g>
          </g>
        </g>
        <g
           id="xtick_59">
          <g
             id="line2d_59">
            <g
               id="g458">
              <use
                 style="stroke:#000000;stroke-width:0.6;"
                 x="344.92382"
                 xlink:href="#m9b817e345f"
                 y="307.584"
                 id="use456" />
            </g>
          </g>
        </g>
        <g
           id="xtick_60">
          <g
             id="line2d_60">
            <g
               id="g464">
              <use
                 style="stroke:#000000;stroke-width:0.6;"
                 x="347.613441"
                 xlink:href="#m9b817e345f"
                 y="307.584"
                 id="use462" />
            </g>
          </g>
        </g>
        <g
           id="xtick_61">
          <g
             id="line2d_61">
            <g
               id="g470">
              <use
                 style="stroke:#000000;stroke-width:0.6;"
                 x="349.985855"
                 xlink:href="#m9b817e345f"
                 y="307.584"
                 id="use468" />
            </g>
          </g>
        </g>
        <g
           id="xtick_62">
          <g
             id="line2d_62">
            <g
               id="g476">
              <use
                 style="stroke:#000000;stroke-width:0.6;"
                 x="366.069589"
                 xlink:href="#m9b817e345f"
                 y="307.584"
                 id="use474" />
            </g>
          </g>
        </g>
        <g
           id="xtick_63">
          <g
             id="line2d_63">
            <g
               id="g482">
              <use
                 style="stroke:#000000;stroke-width:0.6;"
                 x="374.236564"
                 xlink:href="#m9b817e345f"
                 y="307.584"
                 id="use480" />
            </g>
          </g>
        </g>
        <g
           id="xtick_64">
          <g
             id="line2d_64">
            <g
               id="g488">
              <use
                 style="stroke:#000000;stroke-width:0.6;"
                 x="380.031125"
                 xlink:href="#m9b817e345f"
                 y="307.584"
                 id="use486" />
            </g>
          </g>
        </g>
        <g
           id="xtick_65">
          <g
             id="line2d_65">
            <g
               id="g494">
              <use
                 style="stroke:#000000;stroke-width:0.6;"
                 x="384.525736"
                 xlink:href="#m9b817e345f"
                 y="307.584"
                 id="use492" />
            </g>
          </g>
        </g>
        <g
           id="xtick_66">
          <g
             id="line2d_66">
            <g
               id="g500">
              <use
                 style="stroke:#000000;stroke-width:0.6;"
                 x="388.198101"
                 xlink:href="#m9b817e345f"
                 y="307.584"
                 id="use498" />
            </g>
          </g>
        </g>
        <g
           id="xtick_67">
          <g
             id="line2d_67">
            <g
               id="g506">
              <use
                 style="stroke:#000000;stroke-width:0.6;"
                 x="391.303041"
                 xlink:href="#m9b817e345f"
                 y="307.584"
                 id="use504" />
            </g>
          </g>
        </g>
        <g
           id="xtick_68">
          <g
             id="line2d_68">
            <g
               id="g512">
              <use
                 style="stroke:#000000;stroke-width:0.6;"
                 x="393.992662"
                 xlink:href="#m9b817e345f"
                 y="307.584"
                 id="use510" />
            </g>
          </g>
        </g>
        <g
           id="xtick_69">
          <g
             id="line2d_69">
            <g
               id="g518">
              <use
                 style="stroke:#000000;stroke-width:0.6;"
                 x="396.365076"
                 xlink:href="#m9b817e345f"
                 y="307.584"
                 id="use516" />
            </g>
          </g>
        </g>
        <g
           id="xtick_70">
          <g
             id="line2d_70">
            <g
               id="g524">
              <use
                 style="stroke:#000000;stroke-width:0.6;"
                 x="412.448809"
                 xlink:href="#m9b817e345f"
                 y="307.584"
                 id="use522" />
            </g>
          </g>
        </g>
        <g
           id="text_9">
          <!-- Arithmetic intensity [Flops / B] -->
          <defs
             id="defs548">
            <path
               d="M 34.1875 63.1875  L 20.796875 26.90625  L 47.609375 26.90625  z M 28.609375 72.90625  L 39.796875 72.90625  L 67.578125 0  L 57.328125 0  L 50.6875 18.703125  L 17.828125 18.703125  L 11.1875 0  L 0.78125 0  z "
               id="DejaVuSans-41" />
            <path
               d="M 41.109375 46.296875  Q 39.59375 47.171875 37.8125 47.578125  Q 36.03125 48 33.890625 48  Q 26.265625 48 22.1875 43.046875  Q 18.109375 38.09375 18.109375 28.8125  L 18.109375 0  L 9.078125 0  L 9.078125 54.6875  L 18.109375 54.6875  L 18.109375 46.1875  Q 20.953125 51.171875 25.484375 53.578125  Q 30.03125 56 36.53125 56  Q 37.453125 56 38.578125 55.875  Q 39.703125 55.765625 41.0625 55.515625  z "
               id="DejaVuSans-72" />
            <path
               d="M 9.421875 54.6875  L 18.40625 54.6875  L 18.40625 0  L 9.421875 0  z M 9.421875 75.984375  L 18.40625 75.984375  L 18.40625 64.59375  L 9.421875 64.59375  z "
               id="DejaVuSans-69" />
            <path
               d="M 18.3125 70.21875  L 18.3125 54.6875  L 36.8125 54.6875  L 36.8125 47.703125  L 18.3125 47.703125  L 18.3125 18.015625  Q 18.3125 11.328125 20.140625 9.421875  Q 21.96875 7.515625 27.59375 7.515625  L 36.8125 7.515625  L 36.8125 0  L 27.59375 0  Q 17.1875 0 13.234375 3.875  Q 9.28125 7.765625 9.28125 18.015625  L 9.28125 47.703125  L 2.6875 47.703125  L 2.6875 54.6875  L 9.28125 54.6875  L 9.28125 70.21875  z "
               id="DejaVuSans-74" />
            <path
               d="M 54.890625 33.015625  L 54.890625 0  L 45.90625 0  L 45.90625 32.71875  Q 45.90625 40.484375 42.875 44.328125  Q 39.84375 48.1875 33.796875 48.1875  Q 26.515625 48.1875 22.3125 43.546875  Q 18.109375 38.921875 18.109375 30.90625  L 18.109375 0  L 9.078125 0  L 9.078125 75.984375  L 18.109375 75.984375  L 18.109375 46.1875  Q 21.34375 51.125 25.703125 53.5625  Q 30.078125 56 35.796875 56  Q 45.21875 56 50.046875 50.171875  Q 54.890625 44.34375 54.890625 33.015625  z "
               id="DejaVuSans-68" />
            <path
               d="M 52 44.1875  Q 55.375 50.25 60.0625 53.125  Q 64.75 56 71.09375 56  Q 79.640625 56 84.28125 50.015625  Q 88.921875 44.046875 88.921875 33.015625  L 88.921875 0  L 79.890625 0  L 79.890625 32.71875  Q 79.890625 40.578125 77.09375 44.375  Q 74.3125 48.1875 68.609375 48.1875  Q 61.625 48.1875 57.5625 43.546875  Q 53.515625 38.921875 53.515625 30.90625  L 53.515625 0  L 44.484375 0  L 44.484375 32.71875  Q 44.484375 40.625 41.703125 44.40625  Q 38.921875 48.1875 33.109375 48.1875  Q 26.21875 48.1875 22.15625 43.53125  Q 18.109375 38.875 18.109375 30.90625  L 18.109375 0  L 9.078125 0  L 9.078125 54.6875  L 18.109375 54.6875  L 18.109375 46.1875  Q 21.1875 51.21875 25.484375 53.609375  Q 29.78125 56 35.6875 56  Q 41.65625 56 45.828125 52.96875  Q 50 49.953125 52 44.1875  z "
               id="DejaVuSans-6d" />
            <path
               d="M 56.203125 29.59375  L 56.203125 25.203125  L 14.890625 25.203125  Q 15.484375 15.921875 20.484375 11.0625  Q 25.484375 6.203125 34.421875 6.203125  Q 39.59375 6.203125 44.453125 7.46875  Q 49.3125 8.734375 54.109375 11.28125  L 54.109375 2.78125  Q 49.265625 0.734375 44.1875 -0.34375  Q 39.109375 -1.421875 33.890625 -1.421875  Q 20.796875 -1.421875 13.15625 6.1875  Q 5.515625 13.8125 5.515625 26.8125  Q 5.515625 40.234375 12.765625 48.109375  Q 20.015625 56 32.328125 56  Q 43.359375 56 49.78125 48.890625  Q 56.203125 41.796875 56.203125 29.59375  z M 47.21875 32.234375  Q 47.125 39.59375 43.09375 43.984375  Q 39.0625 48.390625 32.421875 48.390625  Q 24.90625 48.390625 20.390625 44.140625  Q 15.875 39.890625 15.1875 32.171875  z "
               id="DejaVuSans-65" />
            <path
               d="M 48.78125 52.59375  L 48.78125 44.1875  Q 44.96875 46.296875 41.140625 47.34375  Q 37.3125 48.390625 33.40625 48.390625  Q 24.65625 48.390625 19.8125 42.84375  Q 14.984375 37.3125 14.984375 27.296875  Q 14.984375 17.28125 19.8125 11.734375  Q 24.65625 6.203125 33.40625 6.203125  Q 37.3125 6.203125 41.140625 7.25  Q 44.96875 8.296875 48.78125 10.40625  L 48.78125 2.09375  Q 45.015625 0.34375 40.984375 -0.53125  Q 36.96875 -1.421875 32.421875 -1.421875  Q 20.0625 -1.421875 12.78125 6.34375  Q 5.515625 14.109375 5.515625 27.296875  Q 5.515625 40.671875 12.859375 48.328125  Q 20.21875 56 33.015625 56  Q 37.15625 56 41.109375 55.140625  Q 45.0625 54.296875 48.78125 52.59375  z "
               id="DejaVuSans-63" />
            <path
               id="DejaVuSans-20" />
            <path
               d="M 54.890625 33.015625  L 54.890625 0  L 45.90625 0  L 45.90625 32.71875  Q 45.90625 40.484375 42.875 44.328125  Q 39.84375 48.1875 33.796875 48.1875  Q 26.515625 48.1875 22.3125 43.546875  Q 18.109375 38.921875 18.109375 30.90625  L 18.109375 0  L 9.078125 0  L 9.078125 54.6875  L 18.109375 54.6875  L 18.109375 46.1875  Q 21.34375 51.125 25.703125 53.5625  Q 30.078125 56 35.796875 56  Q 45.21875 56 50.046875 50.171875  Q 54.890625 44.34375 54.890625 33.015625  z "
               id="DejaVuSans-6e" />
            <path
               d="M 44.28125 53.078125  L 44.28125 44.578125  Q 40.484375 46.53125 36.375 47.5  Q 32.28125 48.484375 27.875 48.484375  Q 21.1875 48.484375 17.84375 46.4375  Q 14.5 44.390625 14.5 40.28125  Q 14.5 37.15625 16.890625 35.375  Q 19.28125 33.59375 26.515625 31.984375  L 29.59375 31.296875  Q 39.15625 29.25 43.1875 25.515625  Q 47.21875 21.78125 47.21875 15.09375  Q 47.21875 7.46875 41.1875 3.015625  Q 35.15625 -1.421875 24.609375 -1.421875  Q 20.21875 -1.421875 15.453125 -0.5625  Q 10.6875 0.296875 5.421875 2  L 5.421875 11.28125  Q 10.40625 8.6875 15.234375 7.390625  Q 20.0625 6.109375 24.8125 6.109375  Q 31.15625 6.109375 34.5625 8.28125  Q 37.984375 10.453125 37.984375 14.40625  Q 37.984375 18.0625 35.515625 20.015625  Q 33.0625 21.96875 24.703125 23.78125  L 21.578125 24.515625  Q 13.234375 26.265625 9.515625 29.90625  Q 5.8125 33.546875 5.8125 39.890625  Q 5.8125 47.609375 11.28125 51.796875  Q 16.75 56 26.8125 56  Q 31.78125 56 36.171875 55.265625  Q 40.578125 54.546875 44.28125 53.078125  z "
               id="DejaVuSans-73" />
            <path
               d="M 32.171875 -5.078125  Q 28.375 -14.84375 24.75 -17.8125  Q 21.140625 -20.796875 15.09375 -20.796875  L 7.90625 -20.796875  L 7.90625 -13.28125  L 13.1875 -13.28125  Q 16.890625 -13.28125 18.9375 -11.515625  Q 21 -9.765625 23.484375 -3.21875  L 25.09375 0.875  L 2.984375 54.6875  L 12.5 54.6875  L 29.59375 11.921875  L 46.6875 54.6875  L 56.203125 54.6875  z "
               id="DejaVuSans-79" />
            <path
               d="M 8.59375 75.984375  L 29.296875 75.984375  L 29.296875 69  L 17.578125 69  L 17.578125 -6.203125  L 29.296875 -6.203125  L 29.296875 -13.1875  L 8.59375 -13.1875  z "
               id="DejaVuSans-5b" />
            <path
               d="M 9.8125 72.90625  L 51.703125 72.90625  L 51.703125 64.59375  L 19.671875 64.59375  L 19.671875 43.109375  L 48.578125 43.109375  L 48.578125 34.8125  L 19.671875 34.8125  L 19.671875 0  L 9.8125 0  z "
               id="DejaVuSans-46" />
            <path
               d="M 9.421875 75.984375  L 18.40625 75.984375  L 18.40625 0  L 9.421875 0  z "
               id="DejaVuSans-6c" />
            <path
               d="M 30.609375 48.390625  Q 23.390625 48.390625 19.1875 42.75  Q 14.984375 37.109375 14.984375 27.296875  Q 14.984375 17.484375 19.15625 11.84375  Q 23.34375 6.203125 30.609375 6.203125  Q 37.796875 6.203125 41.984375 11.859375  Q 46.1875 17.53125 46.1875 27.296875  Q 46.1875 37.015625 41.984375 42.703125  Q 37.796875 48.390625 30.609375 48.390625  z M 30.609375 56  Q 42.328125 56 49.015625 48.375  Q 55.71875 40.765625 55.71875 27.296875  Q 55.71875 13.875 49.015625 6.21875  Q 42.328125 -1.421875 30.609375 -1.421875  Q 18.84375 -1.421875 12.171875 6.21875  Q 5.515625 13.875 5.515625 27.296875  Q 5.515625 40.765625 12.171875 48.375  Q 18.84375 56 30.609375 56  z "
               id="DejaVuSans-6f" />
            <path
               d="M 18.109375 8.203125  L 18.109375 -20.796875  L 9.078125 -20.796875  L 9.078125 54.6875  L 18.109375 54.6875  L 18.109375 46.390625  Q 20.953125 51.265625 25.265625 53.625  Q 29.59375 56 35.59375 56  Q 45.5625 56 51.78125 48.09375  Q 58.015625 40.1875 58.015625 27.296875  Q 58.015625 14.40625 51.78125 6.484375  Q 45.5625 -1.421875 35.59375 -1.421875  Q 29.59375 -1.421875 25.265625 0.953125  Q 20.953125 3.328125 18.109375 8.203125  z M 48.6875 27.296875  Q 48.6875 37.203125 44.609375 42.84375  Q 40.53125 48.484375 33.40625 48.484375  Q 26.265625 48.484375 22.1875 42.84375  Q 18.109375 37.203125 18.109375 27.296875  Q 18.109375 17.390625 22.1875 11.75  Q 26.265625 6.109375 33.40625 6.109375  Q 40.53125 6.109375 44.609375 11.75  Q 48.6875 17.390625 48.6875 27.296875  z "
               id="DejaVuSans-70" />
            <path
               d="M 25.390625 72.90625  L 33.6875 72.90625  L 8.296875 -9.28125  L 0 -9.28125  z "
               id="DejaVuSans-2f" />
            <path
               d="M 19.671875 34.8125  L 19.671875 8.109375  L 35.5 8.109375  Q 43.453125 8.109375 47.28125 11.40625  Q 51.125 14.703125 51.125 21.484375  Q 51.125 28.328125 47.28125 31.5625  Q 43.453125 34.8125 35.5 34.8125  z M 19.671875 64.796875  L 19.671875 42.828125  L 34.28125 42.828125  Q 41.5 42.828125 45.03125 45.53125  Q 48.578125 48.25 48.578125 53.8125  Q 48.578125 59.328125 45.03125 62.0625  Q 41.5 64.796875 34.28125 64.796875  z M 9.8125 72.90625  L 35.015625 72.90625  Q 46.296875 72.90625 52.390625 68.21875  Q 58.5 63.53125 58.5 54.890625  Q 58.5 48.1875 55.375 44.234375  Q 52.25 40.28125 46.1875 39.3125  Q 53.46875 37.75 57.5 32.78125  Q 61.53125 27.828125 61.53125 20.40625  Q 61.53125 10.640625 54.890625 5.3125  Q 48.25 0 35.984375 0  L 9.8125 0  z "
               id="DejaVuSans-42" />
            <path
               d="M 30.421875 75.984375  L 30.421875 -13.1875  L 9.71875 -13.1875  L 9.71875 -6.203125  L 21.390625 -6.203125  L 21.390625 69  L 9.71875 69  L 9.71875 75.984375  z "
               id="DejaVuSans-5d" />
          </defs>
          <g
             transform="translate(159.968594 335.860562)scale(0.1 -0.1)"
             id="g614">
            <use
               xlink:href="#DejaVuSans-41"
               id="use550" />
            <use
               x="68.408203"
               xlink:href="#DejaVuSans-72"
               id="use552" />
            <use
               x="109.521484"
               xlink:href="#DejaVuSans-69"
               id="use554" />
            <use
               x="137.304688"
               xlink:href="#DejaVuSans-74"
               id="use556" />
            <use
               x="176.513672"
               xlink:href="#DejaVuSans-68"
               id="use558" />
            <use
               x="239.892578"
               xlink:href="#DejaVuSans-6d"
               id="use560" />
            <use
               x="337.304688"
               xlink:href="#DejaVuSans-65"
               id="use562" />
            <use
               x="398.828125"
               xlink:href="#DejaVuSans-74"
               id="use564" />
            <use
               x="438.037109"
               xlink:href="#DejaVuSans-69"
               id="use566" />
            <use
               x="465.820312"
               xlink:href="#DejaVuSans-63"
               id="use568" />
            <use
               x="520.800781"
               xlink:href="#DejaVuSans-20"
               id="use570" />
            <use
               x="552.587891"
               xlink:href="#DejaVuSans-69"
               id="use572" />
            <use
               x="580.371094"
               xlink:href="#DejaVuSans-6e"
               id="use574" />
            <use
               x="643.75"
               xlink:href="#DejaVuSans-74"
               id="use576" />
            <use
               x="682.958984"
               xlink:href="#DejaVuSans-65"
               id="use578" />
            <use
               x="744.482422"
               xlink:href="#DejaVuSans-6e"
               id="use580" />
            <use
               x="807.861328"
               xlink:href="#DejaVuSans-73"
               id="use582" />
            <use
               x="859.960938"
               xlink:href="#DejaVuSans-69"
               id="use584" />
            <use
               x="887.744141"
               xlink:href="#DejaVuSans-74"
               id="use586" />
            <use
               x="926.953125"
               xlink:href="#DejaVuSans-79"
               id="use588" />
            <use
               x="986.132812"
               xlink:href="#DejaVuSans-20"
               id="use590" />
            <use
               x="1017.919922"
               xlink:href="#DejaVuSans-5b"
               id="use592" />
            <use
               x="1056.933594"
               xlink:href="#DejaVuSans-46"
               id="use594" />
            <use
               x="1114.453125"
               xlink:href="#DejaVuSans-6c"
               id="use596" />
            <use
               x="1142.236328"
               xlink:href="#DejaVuSans-6f"
               id="use598" />
            <use
               x="1203.417969"
               xlink:href="#DejaVuSans-70"
               id="use600" />
            <use
               x="1266.894531"
               xlink:href="#DejaVuSans-73"
               id="use602" />
            <use
               x="1318.994141"
               xlink:href="#DejaVuSans-20"
               id="use604" />
            <use
               x="1350.78125"
               xlink:href="#DejaVuSans-2f"
               id="use606" />
            <use
               x="1384.472656"
               xlink:href="#DejaVuSans-20"
               id="use608" />
            <use
               x="1416.259766"
               xlink:href="#DejaVuSans-42"
               id="use610" />
            <use
               x="1484.863281"
               xlink:href="#DejaVuSans-5d"
               id="use612" />
          </g>
        </g>
      </g>
      <g
         id="matplotlib.axis_2">
        <g
           id="ytick_1">
          <g
             id="line2d_71">
            <defs
               id="defs619">
              <path
                 d="M 0 0  L -3.5 0  "
                 id="m00fcdf4076"
                 style="stroke:#000000;stroke-width:0.8;" />
            </defs>
            <g
               id="g623">
              <use
                 style="stroke:#000000;stroke-width:0.8;"
                 x="57.6"
                 xlink:href="#m00fcdf4076"
                 y="290.175768"
                 id="use621" />
            </g>
          </g>
          <g
             id="text_10">
            <!-- $\mathdefault{10^{-1}}$ -->
            <g
               transform="translate(27.1 293.974987)scale(0.1 -0.1)"
               id="g634">
              <use
                 transform="translate(0 0.684375)"
                 xlink:href="#DejaVuSans-31"
                 id="use626" />
              <use
                 transform="translate(63.623047 0.684375)"
                 xlink:href="#DejaVuSans-30"
                 id="use628" />
              <use
                 transform="translate(128.203125 38.965625)scale(0.7)"
                 xlink:href="#DejaVuSans-2212"
                 id="use630" />
              <use
                 transform="translate(186.855469 38.965625)scale(0.7)"
                 xlink:href="#DejaVuSans-31"
                 id="use632" />
            </g>
          </g>
        </g>
        <g
           id="ytick_2">
          <g
             id="line2d_72">
            <g
               id="g640">
              <use
                 style="stroke:#000000;stroke-width:0.8;"
                 x="57.6"
                 xlink:href="#m00fcdf4076"
                 y="235.359642"
                 id="use638" />
            </g>
          </g>
          <g
             id="text_11">
            <!-- $\mathdefault{10^{0}}$ -->
            <g
               transform="translate(33 239.15886)scale(0.1 -0.1)"
               id="g649">
              <use
                 transform="translate(0 0.765625)"
                 xlink:href="#DejaVuSans-31"
                 id="use643" />
              <use
                 transform="translate(63.623047 0.765625)"
                 xlink:href="#DejaVuSans-30"
                 id="use645" />
              <use
                 transform="translate(128.203125 39.046875)scale(0.7)"
                 xlink:href="#DejaVuSans-30"
                 id="use647" />
            </g>
          </g>
        </g>
        <g
           id="ytick_3">
          <g
             id="line2d_73">
            <g
               id="g655">
              <use
                 style="stroke:#000000;stroke-width:0.8;"
                 x="57.6"
                 xlink:href="#m00fcdf4076"
                 y="180.543515"
                 id="use653" />
            </g>
          </g>
          <g
             id="text_12">
            <!-- $\mathdefault{10^{1}}$ -->
            <g
               transform="translate(33 184.342733)scale(0.1 -0.1)"
               id="g664">
              <use
                 transform="translate(0 0.684375)"
                 xlink:href="#DejaVuSans-31"
                 id="use658" />
              <use
                 transform="translate(63.623047 0.684375)"
                 xlink:href="#DejaVuSans-30"
                 id="use660" />
              <use
                 transform="translate(128.203125 38.965625)scale(0.7)"
                 xlink:href="#DejaVuSans-31"
                 id="use662" />
            </g>
          </g>
        </g>
        <g
           id="ytick_4">
          <g
             id="line2d_74">
            <g
               id="g670">
              <use
                 style="stroke:#000000;stroke-width:0.8;"
                 x="57.6"
                 xlink:href="#m00fcdf4076"
                 y="125.727388"
                 id="use668" />
            </g>
          </g>
          <g
             id="text_13">
            <!-- $\mathdefault{10^{2}}$ -->
            <g
               transform="translate(33 129.526606)scale(0.1 -0.1)"
               id="g679">
              <use
                 transform="translate(0 0.765625)"
                 xlink:href="#DejaVuSans-31"
                 id="use673" />
              <use
                 transform="translate(63.623047 0.765625)"
                 xlink:href="#DejaVuSans-30"
                 id="use675" />
              <use
                 transform="translate(128.203125 39.046875)scale(0.7)"
                 xlink:href="#DejaVuSans-32"
                 id="use677" />
            </g>
          </g>
        </g>
        <g
           id="ytick_5">
          <g
             id="line2d_75">
            <g
               id="g685">
              <use
                 style="stroke:#000000;stroke-width:0.8;"
                 x="57.6"
                 xlink:href="#m00fcdf4076"
                 y="70.911261"
                 id="use683" />
            </g>
          </g>
          <g
             id="text_14">
            <!-- $\mathdefault{10^{3}}$ -->
            <g
               transform="translate(33 74.71048)scale(0.1 -0.1)"
               id="g694">
              <use
                 transform="translate(0 0.765625)"
                 xlink:href="#DejaVuSans-31"
                 id="use688" />
              <use
                 transform="translate(63.623047 0.765625)"
                 xlink:href="#DejaVuSans-30"
                 id="use690" />
              <use
                 transform="translate(128.203125 39.046875)scale(0.7)"
                 xlink:href="#DejaVuSans-33"
                 id="use692" />
            </g>
          </g>
        </g>
        <g
           id="ytick_6">
          <g
             id="line2d_76">
            <defs
               id="defs699">
              <path
                 d="M 0 0  L -2 0  "
                 id="mdf33572239"
                 style="stroke:#000000;stroke-width:0.6;" />
            </defs>
            <g
               id="g703">
              <use
                 style="stroke:#000000;stroke-width:0.6;"
                 x="57.6"
                 xlink:href="#mdf33572239"
                 y="306.677067"
                 id="use701" />
            </g>
          </g>
        </g>
        <g
           id="ytick_7">
          <g
             id="line2d_77">
            <g
               id="g709">
              <use
                 style="stroke:#000000;stroke-width:0.6;"
                 x="57.6"
                 xlink:href="#mdf33572239"
                 y="302.336658"
                 id="use707" />
            </g>
          </g>
        </g>
        <g
           id="ytick_8">
          <g
             id="line2d_78">
            <g
               id="g715">
              <use
                 style="stroke:#000000;stroke-width:0.6;"
                 x="57.6"
                 xlink:href="#mdf33572239"
                 y="298.666894"
                 id="use713" />
            </g>
          </g>
        </g>
        <g
           id="ytick_9">
          <g
             id="line2d_79">
            <g
               id="g721">
              <use
                 style="stroke:#000000;stroke-width:0.6;"
                 x="57.6"
                 xlink:href="#mdf33572239"
                 y="295.488"
                 id="use719" />
            </g>
          </g>
        </g>
        <g
           id="ytick_10">
          <g
             id="line2d_80">
            <g
               id="g727">
              <use
                 style="stroke:#000000;stroke-width:0.6;"
                 x="57.6"
                 xlink:href="#mdf33572239"
                 y="292.684017"
                 id="use725" />
            </g>
          </g>
        </g>
        <g
           id="ytick_11">
          <g
             id="line2d_81">
            <g
               id="g733">
              <use
                 style="stroke:#000000;stroke-width:0.6;"
                 x="57.6"
                 xlink:href="#mdf33572239"
                 y="273.67447"
                 id="use731" />
            </g>
          </g>
        </g>
        <g
           id="ytick_12">
          <g
             id="line2d_82">
            <g
               id="g739">
              <use
                 style="stroke:#000000;stroke-width:0.6;"
                 x="57.6"
                 xlink:href="#mdf33572239"
                 y="264.021829"
                 id="use737" />
            </g>
          </g>
        </g>
        <g
           id="ytick_13">
          <g
             id="line2d_83">
            <g
               id="g745">
              <use
                 style="stroke:#000000;stroke-width:0.6;"
                 x="57.6"
                 xlink:href="#mdf33572239"
                 y="257.173172"
                 id="use743" />
            </g>
          </g>
        </g>
        <g
           id="ytick_14">
          <g
             id="line2d_84">
            <g
               id="g751">
              <use
                 style="stroke:#000000;stroke-width:0.6;"
                 x="57.6"
                 xlink:href="#mdf33572239"
                 y="251.86094"
                 id="use749" />
            </g>
          </g>
        </g>
        <g
           id="ytick_15">
          <g
             id="line2d_85">
            <g
               id="g757">
              <use
                 style="stroke:#000000;stroke-width:0.6;"
                 x="57.6"
                 xlink:href="#mdf33572239"
                 y="247.520531"
                 id="use755" />
            </g>
          </g>
        </g>
        <g
           id="ytick_16">
          <g
             id="line2d_86">
            <g
               id="g763">
              <use
                 style="stroke:#000000;stroke-width:0.6;"
                 x="57.6"
                 xlink:href="#mdf33572239"
                 y="243.850767"
                 id="use761" />
            </g>
          </g>
        </g>
        <g
           id="ytick_17">
          <g
             id="line2d_87">
            <g
               id="g769">
              <use
                 style="stroke:#000000;stroke-width:0.6;"
                 x="57.6"
                 xlink:href="#mdf33572239"
                 y="240.671873"
                 id="use767" />
            </g>
          </g>
        </g>
        <g
           id="ytick_18">
          <g
             id="line2d_88">
            <g
               id="g775">
              <use
                 style="stroke:#000000;stroke-width:0.6;"
                 x="57.6"
                 xlink:href="#mdf33572239"
                 y="237.86789"
                 id="use773" />
            </g>
          </g>
        </g>
        <g
           id="ytick_19">
          <g
             id="line2d_89">
            <g
               id="g781">
              <use
                 style="stroke:#000000;stroke-width:0.6;"
                 x="57.6"
                 xlink:href="#mdf33572239"
                 y="218.858343"
                 id="use779" />
            </g>
          </g>
        </g>
        <g
           id="ytick_20">
          <g
             id="line2d_90">
            <g
               id="g787">
              <use
                 style="stroke:#000000;stroke-width:0.6;"
                 x="57.6"
                 xlink:href="#mdf33572239"
                 y="209.205702"
                 id="use785" />
            </g>
          </g>
        </g>
        <g
           id="ytick_21">
          <g
             id="line2d_91">
            <g
               id="g793">
              <use
                 style="stroke:#000000;stroke-width:0.6;"
                 x="57.6"
                 xlink:href="#mdf33572239"
                 y="202.357045"
                 id="use791" />
            </g>
          </g>
        </g>
        <g
           id="ytick_22">
          <g
             id="line2d_92">
            <g
               id="g799">
              <use
                 style="stroke:#000000;stroke-width:0.6;"
                 x="57.6"
                 xlink:href="#mdf33572239"
                 y="197.044813"
                 id="use797" />
            </g>
          </g>
        </g>
        <g
           id="ytick_23">
          <g
             id="line2d_93">
            <g
               id="g805">
              <use
                 style="stroke:#000000;stroke-width:0.6;"
                 x="57.6"
                 xlink:href="#mdf33572239"
                 y="192.704404"
                 id="use803" />
            </g>
          </g>
        </g>
        <g
           id="ytick_24">
          <g
             id="line2d_94">
            <g
               id="g811">
              <use
                 style="stroke:#000000;stroke-width:0.6;"
                 x="57.6"
                 xlink:href="#mdf33572239"
                 y="189.03464"
                 id="use809" />
            </g>
          </g>
        </g>
        <g
           id="ytick_25">
          <g
             id="line2d_95">
            <g
               id="g817">
              <use
                 style="stroke:#000000;stroke-width:0.6;"
                 x="57.6"
                 xlink:href="#mdf33572239"
                 y="185.855746"
                 id="use815" />
            </g>
          </g>
        </g>
        <g
           id="ytick_26">
          <g
             id="line2d_96">
            <g
               id="g823">
              <use
                 style="stroke:#000000;stroke-width:0.6;"
                 x="57.6"
                 xlink:href="#mdf33572239"
                 y="183.051763"
                 id="use821" />
            </g>
          </g>
        </g>
        <g
           id="ytick_27">
          <g
             id="line2d_97">
            <g
               id="g829">
              <use
                 style="stroke:#000000;stroke-width:0.6;"
                 x="57.6"
                 xlink:href="#mdf33572239"
                 y="164.042216"
                 id="use827" />
            </g>
          </g>
        </g>
        <g
           id="ytick_28">
          <g
             id="line2d_98">
            <g
               id="g835">
              <use
                 style="stroke:#000000;stroke-width:0.6;"
                 x="57.6"
                 xlink:href="#mdf33572239"
                 y="154.389575"
                 id="use833" />
            </g>
          </g>
        </g>
        <g
           id="ytick_29">
          <g
             id="line2d_99">
            <g
               id="g841">
              <use
                 style="stroke:#000000;stroke-width:0.6;"
                 x="57.6"
                 xlink:href="#mdf33572239"
                 y="147.540918"
                 id="use839" />
            </g>
          </g>
        </g>
        <g
           id="ytick_30">
          <g
             id="line2d_100">
            <g
               id="g847">
              <use
                 style="stroke:#000000;stroke-width:0.6;"
                 x="57.6"
                 xlink:href="#mdf33572239"
                 y="142.228686"
                 id="use845" />
            </g>
          </g>
        </g>
        <g
           id="ytick_31">
          <g
             id="line2d_101">
            <g
               id="g853">
              <use
                 style="stroke:#000000;stroke-width:0.6;"
                 x="57.6"
                 xlink:href="#mdf33572239"
                 y="137.888277"
                 id="use851" />
            </g>
          </g>
        </g>
        <g
           id="ytick_32">
          <g
             id="line2d_102">
            <g
               id="g859">
              <use
                 style="stroke:#000000;stroke-width:0.6;"
                 x="57.6"
                 xlink:href="#mdf33572239"
                 y="134.218513"
                 id="use857" />
            </g>
          </g>
        </g>
        <g
           id="ytick_33">
          <g
             id="line2d_103">
            <g
               id="g865">
              <use
                 style="stroke:#000000;stroke-width:0.6;"
                 x="57.6"
                 xlink:href="#mdf33572239"
                 y="131.039619"
                 id="use863" />
            </g>
          </g>
        </g>
        <g
           id="ytick_34">
          <g
             id="line2d_104">
            <g
               id="g871">
              <use
                 style="stroke:#000000;stroke-width:0.6;"
                 x="57.6"
                 xlink:href="#mdf33572239"
                 y="128.235636"
                 id="use869" />
            </g>
          </g>
        </g>
        <g
           id="ytick_35">
          <g
             id="line2d_105">
            <g
               id="g877">
              <use
                 style="stroke:#000000;stroke-width:0.6;"
                 x="57.6"
                 xlink:href="#mdf33572239"
                 y="109.226089"
                 id="use875" />
            </g>
          </g>
        </g>
        <g
           id="ytick_36">
          <g
             id="line2d_106">
            <g
               id="g883">
              <use
                 style="stroke:#000000;stroke-width:0.6;"
                 x="57.6"
                 xlink:href="#mdf33572239"
                 y="99.573448"
                 id="use881" />
            </g>
          </g>
        </g>
        <g
           id="ytick_37">
          <g
             id="line2d_107">
            <g
               id="g889">
              <use
                 style="stroke:#000000;stroke-width:0.6;"
                 x="57.6"
                 xlink:href="#mdf33572239"
                 y="92.724791"
                 id="use887" />
            </g>
          </g>
        </g>
        <g
           id="ytick_38">
          <g
             id="line2d_108">
            <g
               id="g895">
              <use
                 style="stroke:#000000;stroke-width:0.6;"
                 x="57.6"
                 xlink:href="#mdf33572239"
                 y="87.412559"
                 id="use893" />
            </g>
          </g>
        </g>
        <g
           id="ytick_39">
          <g
             id="line2d_109">
            <g
               id="g901">
              <use
                 style="stroke:#000000;stroke-width:0.6;"
                 x="57.6"
                 xlink:href="#mdf33572239"
                 y="83.07215"
                 id="use899" />
            </g>
          </g>
        </g>
        <g
           id="ytick_40">
          <g
             id="line2d_110">
            <g
               id="g907">
              <use
                 style="stroke:#000000;stroke-width:0.6;"
                 x="57.6"
                 xlink:href="#mdf33572239"
                 y="79.402386"
                 id="use905" />
            </g>
          </g>
        </g>
        <g
           id="ytick_41">
          <g
             id="line2d_111">
            <g
               id="g913">
              <use
                 style="stroke:#000000;stroke-width:0.6;"
                 x="57.6"
                 xlink:href="#mdf33572239"
                 y="76.223492"
                 id="use911" />
            </g>
          </g>
        </g>
        <g
           id="ytick_42">
          <g
             id="line2d_112">
            <g
               id="g919">
              <use
                 style="stroke:#000000;stroke-width:0.6;"
                 x="57.6"
                 xlink:href="#mdf33572239"
                 y="73.419509"
                 id="use917" />
            </g>
          </g>
        </g>
        <g
           id="ytick_43">
          <g
             id="line2d_113">
            <g
               id="g925">
              <use
                 style="stroke:#000000;stroke-width:0.6;"
                 x="57.6"
                 xlink:href="#mdf33572239"
                 y="54.409962"
                 id="use923" />
            </g>
          </g>
        </g>
        <g
           id="ytick_44">
          <g
             id="line2d_114">
            <g
               id="g931">
              <use
                 style="stroke:#000000;stroke-width:0.6;"
                 x="57.6"
                 xlink:href="#mdf33572239"
                 y="44.757321"
                 id="use929" />
            </g>
          </g>
        </g>
        <g
           id="text_15">
          <!-- Performance [GFlops / s] -->
          <defs
             id="defs939">
            <path
               d="M 19.671875 64.796875  L 19.671875 37.40625  L 32.078125 37.40625  Q 38.96875 37.40625 42.71875 40.96875  Q 46.484375 44.53125 46.484375 51.125  Q 46.484375 57.671875 42.71875 61.234375  Q 38.96875 64.796875 32.078125 64.796875  z M 9.8125 72.90625  L 32.078125 72.90625  Q 44.34375 72.90625 50.609375 67.359375  Q 56.890625 61.8125 56.890625 51.125  Q 56.890625 40.328125 50.609375 34.8125  Q 44.34375 29.296875 32.078125 29.296875  L 19.671875 29.296875  L 19.671875 0  L 9.8125 0  z "
               id="DejaVuSans-50" />
            <path
               d="M 37.109375 75.984375  L 37.109375 68.5  L 28.515625 68.5  Q 23.6875 68.5 21.796875 66.546875  Q 19.921875 64.59375 19.921875 59.515625  L 19.921875 54.6875  L 34.71875 54.6875  L 34.71875 47.703125  L 19.921875 47.703125  L 19.921875 0  L 10.890625 0  L 10.890625 47.703125  L 2.296875 47.703125  L 2.296875 54.6875  L 10.890625 54.6875  L 10.890625 58.5  Q 10.890625 67.625 15.140625 71.796875  Q 19.390625 75.984375 28.609375 75.984375  z "
               id="DejaVuSans-66" />
            <path
               d="M 34.28125 27.484375  Q 23.390625 27.484375 19.1875 25  Q 14.984375 22.515625 14.984375 16.5  Q 14.984375 11.71875 18.140625 8.90625  Q 21.296875 6.109375 26.703125 6.109375  Q 34.1875 6.109375 38.703125 11.40625  Q 43.21875 16.703125 43.21875 25.484375  L 43.21875 27.484375  z M 52.203125 31.203125  L 52.203125 0  L 43.21875 0  L 43.21875 8.296875  Q 40.140625 3.328125 35.546875 0.953125  Q 30.953125 -1.421875 24.3125 -1.421875  Q 15.921875 -1.421875 10.953125 3.296875  Q 6 8.015625 6 15.921875  Q 6 25.140625 12.171875 29.828125  Q 18.359375 34.515625 30.609375 34.515625  L 43.21875 34.515625  L 43.21875 35.40625  Q 43.21875 41.609375 39.140625 45  Q 35.0625 48.390625 27.6875 48.390625  Q 23 48.390625 18.546875 47.265625  Q 14.109375 46.140625 10.015625 43.890625  L 10.015625 52.203125  Q 14.9375 54.109375 19.578125 55.046875  Q 24.21875 56 28.609375 56  Q 40.484375 56 46.34375 49.84375  Q 52.203125 43.703125 52.203125 31.203125  z "
               id="DejaVuSans-61" />
            <path
               d="M 59.515625 10.40625  L 59.515625 29.984375  L 43.40625 29.984375  L 43.40625 38.09375  L 69.28125 38.09375  L 69.28125 6.78125  Q 63.578125 2.734375 56.6875 0.65625  Q 49.8125 -1.421875 42 -1.421875  Q 24.90625 -1.421875 15.25 8.5625  Q 5.609375 18.5625 5.609375 36.375  Q 5.609375 54.25 15.25 64.234375  Q 24.90625 74.21875 42 74.21875  Q 49.125 74.21875 55.546875 72.453125  Q 61.96875 70.703125 67.390625 67.28125  L 67.390625 56.78125  Q 61.921875 61.421875 55.765625 63.765625  Q 49.609375 66.109375 42.828125 66.109375  Q 29.4375 66.109375 22.71875 58.640625  Q 16.015625 51.171875 16.015625 36.375  Q 16.015625 21.625 22.71875 14.15625  Q 29.4375 6.6875 42.828125 6.6875  Q 48.046875 6.6875 52.140625 7.59375  Q 56.25 8.5 59.515625 10.40625  z "
               id="DejaVuSans-47" />
          </defs>
          <g
             transform="translate(21.020312 236.410812)rotate(-90)scale(0.1 -0.1)"
             id="g989">
            <use
               xlink:href="#DejaVuSans-50"
               id="use941" />
            <use
               x="60.255859"
               xlink:href="#DejaVuSans-65"
               id="use943" />
            <use
               x="121.779297"
               xlink:href="#DejaVuSans-72"
               id="use945" />
            <use
               x="162.892578"
               xlink:href="#DejaVuSans-66"
               id="use947" />
            <use
               x="198.097656"
               xlink:href="#DejaVuSans-6f"
               id="use949" />
            <use
               x="259.279297"
               xlink:href="#DejaVuSans-72"
               id="use951" />
            <use
               x="300.376953"
               xlink:href="#DejaVuSans-6d"
               id="use953" />
            <use
               x="397.789062"
               xlink:href="#DejaVuSans-61"
               id="use955" />
            <use
               x="459.068359"
               xlink:href="#DejaVuSans-6e"
               id="use957" />
            <use
               x="522.447266"
               xlink:href="#DejaVuSans-63"
               id="use959" />
            <use
               x="577.427734"
               xlink:href="#DejaVuSans-65"
               id="use961" />
            <use
               x="638.951172"
               xlink:href="#DejaVuSans-20"
               id="use963" />
            <use
               x="670.738281"
               xlink:href="#DejaVuSans-5b"
               id="use965" />
            <use
               x="709.751953"
               xlink:href="#DejaVuSans-47"
               id="use967" />
            <use
               x="787.242188"
               xlink:href="#DejaVuSans-46"
               id="use969" />
            <use
               x="844.761719"
               xlink:href="#DejaVuSans-6c"
               id="use971" />
            <use
               x="872.544922"
               xlink:href="#DejaVuSans-6f"
               id="use973" />
            <use
               x="933.726562"
               xlink:href="#DejaVuSans-70"
               id="use975" />
            <use
               x="997.203125"
               xlink:href="#DejaVuSans-73"
               id="use977" />
            <use
               x="1049.302734"
               xlink:href="#DejaVuSans-20"
               id="use979" />
            <use
               x="1081.089844"
               xlink:href="#DejaVuSans-2f"
               id="use981" />
            <use
               x="1114.78125"
               xlink:href="#DejaVuSans-20"
               id="use983" />
            <use
               x="1146.568359"
               xlink:href="#DejaVuSans-73"
               id="use985" />
            <use
               x="1198.667969"
               xlink:href="#DejaVuSans-5d"
               id="use987" />
          </g>
        </g>
      </g>
      <g
         id="line2d_115">
        <path
           clip-path="url(#p56d854cc75)"
           d="M 73.832727 295.488  L 80.45833 287.657125  L 87.083933 279.826249  L 93.709536 271.995374  L 100.335139 264.164499  L 106.960742 256.333624  L 113.586345 248.502748  L 120.211948 240.671873  L 126.837551 232.840998  L 133.463154 225.010123  L 140.088757 217.179247  L 146.71436 209.348372  L 153.339963 201.517497  L 159.965566 193.686621  L 166.591169 185.855746  L 173.216772 178.024871  L 179.842375 170.193996  L 186.467978 162.36312  L 193.093581 154.532245  L 199.719184 146.70137  L 206.344787 138.870495  L 212.97039 131.039619  L 219.595993 123.208744  L 226.221596 115.377869  L 232.847199 107.546993  L 239.472801 99.716118  L 246.098404 91.885243  L 252.724007 84.054368  L 259.34961 76.223492  L 265.975213 68.392617  L 272.600816 60.561742  L 279.226419 53.568  L 285.852022 53.568  L 292.477625 53.568  L 299.103228 53.568  L 305.728831 53.568  L 312.354434 53.568  L 318.980037 53.568  L 325.60564 53.568  L 332.231243 53.568  L 338.856846 53.568  L 345.482449 53.568  L 352.108052 53.568  L 358.733655 53.568  L 365.359258 53.568  L 371.984861 53.568  L 378.610464 53.568  L 385.236067 53.568  L 391.86167 53.568  L 398.487273 53.568  "
           style="fill:none;stroke:#1e90ff;stroke-linecap:square;stroke-width:1.5;"
           id="path993" />
      </g>
      <g
         id="patch_3">
        <path
           d="M 57.6 307.584  L 57.6 41.472  "
           style="fill:none;stroke:#000000;stroke-linecap:square;stroke-linejoin:miter;stroke-width:0.8;"
           id="path996" />
      </g>
      <g
         id="patch_4">
        <path
           d="M 414.72 307.584  L 414.72 41.472  "
           style="fill:none;stroke:#000000;stroke-linecap:square;stroke-linejoin:miter;stroke-width:0.8;"
           id="path999" />
      </g>
      <g
         id="patch_5">
        <path
           d="M 57.6 307.584  L 414.72 307.584  "
           style="fill:none;stroke:#000000;stroke-linecap:square;stroke-linejoin:miter;stroke-width:0.8;"
           id="path1002" />
      </g>
      <g
         id="patch_6">
        <path
           d="M 57.6 41.472  L 414.72 41.472  "
           style="fill:none;stroke:#000000;stroke-linecap:square;stroke-linejoin:miter;stroke-width:0.8;"
           id="path1005" />
      </g>
      <g
         id="legend_1">
        <g
           id="patch_7">
          <path
             d="M 64.6 64.150125  L 160.815625 64.150125  Q 162.815625 64.150125 162.815625 62.150125  L 162.815625 48.472  Q 162.815625 46.472 160.815625 46.472  L 64.6 46.472  Q 62.6 46.472 62.6 48.472  L 62.6 62.150125  Q 62.6 64.150125 64.6 64.150125  z "
             style="fill:#ffffff;opacity:0.8;stroke:#cccccc;stroke-linejoin:miter;"
             id="path1008" />
        </g>
        <g
           id="line2d_116">
          <path
             d="M 66.6 54.570438  L 86.6 54.570438  "
             style="fill:none;stroke:#1e90ff;stroke-linecap:square;stroke-width:1.5;"
             id="path1011" />
        </g>
        <g
           id="line2d_117" />
        <g
           id="text_16">
          <!-- Intel Skylake -->
          <defs
             id="defs1018">
            <path
               d="M 9.8125 72.90625  L 19.671875 72.90625  L 19.671875 0  L 9.8125 0  z "
               id="DejaVuSans-49" />
            <path
               d="M 53.515625 70.515625  L 53.515625 60.890625  Q 47.90625 63.578125 42.921875 64.890625  Q 37.9375 66.21875 33.296875 66.21875  Q 25.25 66.21875 20.875 63.09375  Q 16.5 59.96875 16.5 54.203125  Q 16.5 49.359375 19.40625 46.890625  Q 22.3125 44.4375 30.421875 42.921875  L 36.375 41.703125  Q 47.40625 39.59375 52.65625 34.296875  Q 57.90625 29 57.90625 20.125  Q 57.90625 9.515625 50.796875 4.046875  Q 43.703125 -1.421875 29.984375 -1.421875  Q 24.8125 -1.421875 18.96875 -0.25  Q 13.140625 0.921875 6.890625 3.21875  L 6.890625 13.375  Q 12.890625 10.015625 18.65625 8.296875  Q 24.421875 6.59375 29.984375 6.59375  Q 38.421875 6.59375 43.015625 9.90625  Q 47.609375 13.234375 47.609375 19.390625  Q 47.609375 24.75 44.3125 27.78125  Q 41.015625 30.8125 33.5 32.328125  L 27.484375 33.5  Q 16.453125 35.6875 11.515625 40.375  Q 6.59375 45.0625 6.59375 53.421875  Q 6.59375 63.09375 13.40625 68.65625  Q 20.21875 74.21875 32.171875 74.21875  Q 37.3125 74.21875 42.625 73.28125  Q 47.953125 72.359375 53.515625 70.515625  z "
               id="DejaVuSans-53" />
            <path
               d="M 9.078125 75.984375  L 18.109375 75.984375  L 18.109375 31.109375  L 44.921875 54.6875  L 56.390625 54.6875  L 27.390625 29.109375  L 57.625 0  L 45.90625 0  L 18.109375 26.703125  L 18.109375 0  L 9.078125 0  z "
               id="DejaVuSans-6b" />
          </defs>
          <g
             transform="translate(94.6 58.070438)scale(0.1 -0.1)"
             id="g1046">
            <use
               xlink:href="#DejaVuSans-49"
               id="use1020" />
            <use
               x="29.492188"
               xlink:href="#DejaVuSans-6e"
               id="use1022" />
            <use
               x="92.871094"
               xlink:href="#DejaVuSans-74"
               id="use1024" />
            <use
               x="132.080078"
               xlink:href="#DejaVuSans-65"
               id="use1026" />
            <use
               x="193.603516"
               xlink:href="#DejaVuSans-6c"
               id="use1028" />
            <use
               x="221.386719"
               xlink:href="#DejaVuSans-20"
               id="use1030" />
            <use
               x="253.173828"
               xlink:href="#DejaVuSans-53"
               id="use1032" />
            <use
               x="316.650391"
               xlink:href="#DejaVuSans-6b"
               id="use1034" />
            <use
               x="374.513672"
               xlink:href="#DejaVuSans-79"
               id="use1036" />
            <use
               x="433.693359"
               xlink:href="#DejaVuSans-6c"
               id="use1038" />
            <use
               x="461.476562"
               xlink:href="#DejaVuSans-61"
               id="use1040" />
            <use
               x="522.755859"
               xlink:href="#DejaVuSans-6b"
               id="use1042" />
            <use
               x="580.619141"
               xlink:href="#DejaVuSans-65"
               id="use1044" />
          </g>
        </g>
      </g>
    </g>
  </g>
  <defs
     id="defs1055">
    <clipPath
       id="p56d854cc75">
      <rect
         height="266.112"
         width="357.12"
         x="57.6"
         y="41.472"
         id="rect1052" />
    </clipPath>
  </defs>
  <path
     style="fill:none;stroke:#000000;stroke-width:0.75px;stroke-linecap:butt;stroke-linejoin:miter;stroke-opacity:1"
     d="M 279.0907,41.578263 V 306.2606"
     id="path2589"
     inkscape:connector-curvature="0"
     sodipodi:nodetypes="cc" />
  <text
     xml:space="preserve"
     style="font-style:normal;font-variant:normal;font-weight:normal;font-stretch:normal;font-size:14px;line-height:1.25;font-family:sans-serif;-inkscape-font-specification:'sans-serif, Normal';font-variant-ligatures:normal;font-variant-caps:normal;font-variant-numeric:normal;font-feature-settings:normal;text-align:center;letter-spacing:0px;word-spacing:0px;writing-mode:lr-tb;text-anchor:middle;fill:#000000;fill-opacity:1;stroke:none;stroke-width:0.75;stroke-linecap:butt;stroke-linejoin:round"
     x="205.43192"
     y="232.32732"
     id="text2593"><tspan
       sodipodi:role="line"
       id="tspan2591"
       style="font-style:normal;font-variant:normal;font-weight:normal;font-stretch:normal;font-size:14px;font-family:sans-serif;-inkscape-font-specification:'sans-serif, Normal';font-variant-ligatures:normal;font-variant-caps:normal;font-variant-numeric:normal;font-feature-settings:normal;text-align:center;writing-mode:lr-tb;text-anchor:middle;stroke-width:0.75;stroke-linecap:butt;stroke-linejoin:round"
       x="205.43192"
       y="232.32732">Memory bound</tspan><tspan
       sodipodi:role="line"
       style="font-style:normal;font-variant:normal;font-weight:normal;font-stretch:normal;font-size:14px;font-family:sans-serif;-inkscape-font-specification:'sans-serif, Normal';font-variant-ligatures:normal;font-variant-caps:normal;font-variant-numeric:normal;font-feature-settings:normal;text-align:center;writing-mode:lr-tb;text-anchor:middle;stroke-width:0.75;stroke-linecap:butt;stroke-linejoin:round"
       x="205.43192"
       y="249.82732"
       id="tspan2595">region</tspan></text>
  <text
     id="text2601"
     y="232.32732"
     x="347.04803"
     style="font-style:normal;font-variant:normal;font-weight:normal;font-stretch:normal;font-size:14px;line-height:1.25;font-family:sans-serif;-inkscape-font-specification:'sans-serif, Normal';font-variant-ligatures:normal;font-variant-caps:normal;font-variant-numeric:normal;font-feature-settings:normal;text-align:center;letter-spacing:0px;word-spacing:0px;writing-mode:lr-tb;text-anchor:middle;fill:#000000;fill-opacity:1;stroke:none;stroke-width:0.75;stroke-linecap:butt;stroke-linejoin:round"
     xml:space="preserve"><tspan
       y="232.32732"
       x="347.04803"
       style="font-style:normal;font-variant:normal;font-weight:normal;font-stretch:normal;font-size:14px;font-family:sans-serif;-inkscape-font-specification:'sans-serif, Normal';font-variant-ligatures:normal;font-variant-caps:normal;font-variant-numeric:normal;font-feature-settings:normal;text-align:center;writing-mode:lr-tb;text-anchor:middle;stroke-width:0.75;stroke-linecap:butt;stroke-linejoin:round"
       id="tspan2597"
       sodipodi:role="line">Compute bound</tspan><tspan
       id="tspan2599"
       y="249.82732"
       x="347.04803"
       style="font-style:normal;font-variant:normal;font-weight:normal;font-stretch:normal;font-size:14px;font-family:sans-serif;-inkscape-font-specification:'sans-serif, Normal';font-variant-ligatures:normal;font-variant-caps:normal;font-variant-numeric:normal;font-feature-settings:normal;text-align:center;writing-mode:lr-tb;text-anchor:middle;stroke-width:0.75;stroke-linecap:butt;stroke-linejoin:round"
       sodipodi:role="line">region</tspan></text>
</svg>
