<?xml version="1.0" encoding="UTF-8" standalone="no"?>
<!-- Created with Inkscape (http://www.inkscape.org/) -->

<svg
   xmlns:dc="http://purl.org/dc/elements/1.1/"
   xmlns:cc="http://creativecommons.org/ns#"
   xmlns:rdf="http://www.w3.org/1999/02/22-rdf-syntax-ns#"
   xmlns:svg="http://www.w3.org/2000/svg"
   xmlns="http://www.w3.org/2000/svg"
   xmlns:xlink="http://www.w3.org/1999/xlink"
   xmlns:sodipodi="http://sodipodi.sourceforge.net/DTD/sodipodi-0.dtd"
   xmlns:inkscape="http://www.inkscape.org/namespaces/inkscape"
   width="527.67487"
   height="292.74338"
   id="svg2"
   version="1.1"
   inkscape:version="0.92.3 (2405546, 2018-03-11)"
   sodipodi:docname="proc_vs_fpga.svg">
  <defs
     id="defs4">
    <inkscape:path-effect
       effect="skeletal"
       id="path-effect5842"
       is_visible="true"
       pattern="M 0,0 V 10 L 10,5 Z"
       copytype="single_stretched"
       prop_scale="1"
       scale_y_rel="false"
       spacing="0"
       normal_offset="0"
       tang_offset="0"
       prop_units="false"
       vertical_pattern="false"
       fuse_tolerance="0" />
    <inkscape:path-effect
       effect="skeletal"
       id="path-effect5828"
       is_visible="true"
       pattern="M 0,0 V 10 L 10,5 Z"
       copytype="single_stretched"
       prop_scale="1"
       scale_y_rel="false"
       spacing="0"
       normal_offset="0"
       tang_offset="0"
       prop_units="false"
       vertical_pattern="false"
       fuse_tolerance="0" />
    <marker
       inkscape:stockid="Arrow1Send"
       orient="auto"
       refY="0"
       refX="0"
       id="Arrow1Send"
       style="overflow:visible">
      <path
         id="path3815"
         d="M 0,0 5,-5 -12.5,0 5,5 Z"
         style="fill-rule:evenodd;stroke:#000000;stroke-width:1.00000003pt"
         transform="matrix(-0.2,0,0,-0.2,-1.2,0)"
         inkscape:connector-curvature="0" />
    </marker>
    <marker
       inkscape:stockid="Arrow1Sstart"
       orient="auto"
       refY="0"
       refX="0"
       id="Arrow1Sstart"
       style="overflow:visible">
      <path
         id="path3812"
         d="M 0,0 5,-5 -12.5,0 5,5 Z"
         style="fill-rule:evenodd;stroke:#000000;stroke-width:1.00000003pt"
         transform="matrix(0.2,0,0,0.2,1.2,0)"
         inkscape:connector-curvature="0" />
    </marker>
    <marker
       inkscape:stockid="Arrow1Mend"
       orient="auto"
       refY="0"
       refX="0"
       id="Arrow1Mend"
       style="overflow:visible">
      <path
         id="path3809"
         d="M 0,0 5,-5 -12.5,0 5,5 Z"
         style="fill-rule:evenodd;stroke:#000000;stroke-width:1.00000003pt"
         transform="matrix(-0.4,0,0,-0.4,-4,0)"
         inkscape:connector-curvature="0" />
    </marker>
    <marker
       inkscape:stockid="Arrow1Mstart"
       orient="auto"
       refY="0"
       refX="0"
       id="Arrow1Mstart"
       style="overflow:visible">
      <path
         id="path3806"
         d="M 0,0 5,-5 -12.5,0 5,5 Z"
         style="fill-rule:evenodd;stroke:#000000;stroke-width:1.00000003pt"
         transform="matrix(0.4,0,0,0.4,4,0)"
         inkscape:connector-curvature="0" />
    </marker>
    <inkscape:path-effect
       effect="skeletal"
       id="path-effect3794"
       is_visible="true"
       pattern="M 0,0 V 10 L 10,5 Z"
       copytype="single_stretched"
       prop_scale="1"
       scale_y_rel="false"
       spacing="0"
       normal_offset="0"
       tang_offset="0"
       prop_units="false"
       vertical_pattern="false"
       fuse_tolerance="0" />
    <linearGradient
       inkscape:collect="always"
       id="linearGradient951">
      <stop
         style="stop-color:#a2a633;stop-opacity:1"
         offset="0"
         id="stop947" />
      <stop
         style="stop-color:#d5d983;stop-opacity:1"
         offset="1"
         id="stop949" />
    </linearGradient>
    <linearGradient
       inkscape:collect="always"
       xlink:href="#linearGradient951"
       id="linearGradient1793"
       x1="109.32397"
       y1="262.00201"
       x2="238.80531"
       y2="262.00201"
       gradientUnits="userSpaceOnUse" />
    <linearGradient
       inkscape:collect="always"
       xlink:href="#linearGradient951"
       id="linearGradient1795"
       x1="106.01885"
       y1="162.41721"
       x2="330.22412"
       y2="162.41721"
       gradientUnits="userSpaceOnUse" />
    <linearGradient
       inkscape:collect="always"
       xlink:href="#linearGradient951"
       id="linearGradient1797"
       x1="487.81137"
       y1="114.55848"
       x2="545.84656"
       y2="114.55848"
       gradientUnits="userSpaceOnUse" />
    <linearGradient
       inkscape:collect="always"
       xlink:href="#linearGradient951"
       id="linearGradient1799"
       x1="360.02707"
       y1="114.55848"
       x2="418.06223"
       y2="114.55848"
       gradientUnits="userSpaceOnUse" />
    <linearGradient
       inkscape:collect="always"
       xlink:href="#linearGradient951"
       id="linearGradient1801"
       x1="360.02707"
       y1="182.23869"
       x2="418.06223"
       y2="182.23869"
       gradientUnits="userSpaceOnUse" />
    <linearGradient
       inkscape:collect="always"
       xlink:href="#linearGradient951"
       id="linearGradient1803"
       x1="487.81137"
       y1="182.23869"
       x2="545.84656"
       y2="182.23869"
       gradientUnits="userSpaceOnUse" />
    <linearGradient
       inkscape:collect="always"
       xlink:href="#linearGradient951"
       id="linearGradient1805"
       x1="487.81137"
       y1="249.41383"
       x2="545.84656"
       y2="249.41383"
       gradientUnits="userSpaceOnUse" />
    <linearGradient
       inkscape:collect="always"
       xlink:href="#linearGradient951"
       id="linearGradient1807"
       x1="360.02707"
       y1="249.41383"
       x2="418.06223"
       y2="249.41383"
       gradientUnits="userSpaceOnUse" />
    <linearGradient
       id="linearGradient965"
       inkscape:collect="always">
      <stop
         id="stop961"
         offset="0"
         style="stop-color:#f2b138;stop-opacity:1" />
      <stop
         id="stop963"
         offset="1"
         style="stop-color:#f9d99d;stop-opacity:1" />
    </linearGradient>
    <linearGradient
       inkscape:collect="always"
       xlink:href="#linearGradient965"
       id="linearGradient1848"
       x1="487.81137"
       y1="149.16174"
       x2="545.84656"
       y2="149.16174"
       gradientUnits="userSpaceOnUse" />
    <linearGradient
       inkscape:collect="always"
       xlink:href="#linearGradient965"
       id="linearGradient1850"
       x1="360.02707"
       y1="149.16174"
       x2="418.06223"
       y2="149.16174"
       gradientUnits="userSpaceOnUse" />
    <linearGradient
       inkscape:collect="always"
       xlink:href="#linearGradient965"
       id="linearGradient1852"
       x1="360.02707"
       y1="216.84193"
       x2="418.06223"
       y2="216.84193"
       gradientUnits="userSpaceOnUse" />
    <linearGradient
       inkscape:collect="always"
       xlink:href="#linearGradient965"
       id="linearGradient1854"
       x1="487.81137"
       y1="216.84193"
       x2="545.84656"
       y2="216.84193"
       gradientUnits="userSpaceOnUse" />
    <linearGradient
       inkscape:collect="always"
       xlink:href="#linearGradient965"
       id="linearGradient1856"
       x1="487.81137"
       y1="284.01709"
       x2="545.84656"
       y2="284.01709"
       gradientUnits="userSpaceOnUse" />
    <linearGradient
       inkscape:collect="always"
       xlink:href="#linearGradient965"
       id="linearGradient1858"
       x1="360.02707"
       y1="284.01709"
       x2="418.06223"
       y2="284.01709"
       gradientUnits="userSpaceOnUse" />
    <linearGradient
       inkscape:collect="always"
       xlink:href="#linearGradient965"
       id="linearGradient1860"
       x1="206.48389"
       y1="293.36102"
       x2="238.25504"
       y2="293.36102"
       gradientUnits="userSpaceOnUse" />
    <linearGradient
       inkscape:collect="always"
       xlink:href="#linearGradient965"
       id="linearGradient1862"
       x1="172.1387"
       y1="293.36102"
       x2="203.90987"
       y2="293.36102"
       gradientUnits="userSpaceOnUse" />
    <linearGradient
       id="linearGradient971"
       inkscape:collect="always">
      <stop
         id="stop967"
         offset="0"
         style="stop-color:#f2cd5c;stop-opacity:1" />
      <stop
         id="stop969"
         offset="1"
         style="stop-color:#fbe6b7;stop-opacity:1" />
    </linearGradient>
    <linearGradient
       inkscape:collect="always"
       id="linearGradient877">
      <stop
         style="stop-color:#555936;stop-opacity:1;"
         offset="0"
         id="stop873" />
      <stop
         style="stop-color:#8e9361;stop-opacity:1"
         offset="1"
         id="stop875" />
    </linearGradient>
    <linearGradient
       inkscape:collect="always"
       xlink:href="#linearGradient877"
       id="linearGradient1985"
       x1="552.04651"
       y1="284.01709"
       x2="610.08167"
       y2="284.01709"
       gradientUnits="userSpaceOnUse" />
    <linearGradient
       inkscape:collect="always"
       xlink:href="#linearGradient877"
       id="linearGradient1987"
       x1="552.04651"
       y1="249.41386"
       x2="610.08167"
       y2="249.41386"
       gradientUnits="userSpaceOnUse" />
    <linearGradient
       inkscape:collect="always"
       xlink:href="#linearGradient877"
       id="linearGradient1989"
       x1="552.04651"
       y1="216.84196"
       x2="610.08167"
       y2="216.84196"
       gradientUnits="userSpaceOnUse" />
    <linearGradient
       inkscape:collect="always"
       xlink:href="#linearGradient877"
       id="linearGradient1991"
       x1="552.04651"
       y1="182.23869"
       x2="610.08167"
       y2="182.23869"
       gradientUnits="userSpaceOnUse" />
    <linearGradient
       inkscape:collect="always"
       xlink:href="#linearGradient877"
       id="linearGradient1993"
       x1="552.04651"
       y1="149.16174"
       x2="610.08167"
       y2="149.16174"
       gradientUnits="userSpaceOnUse" />
    <linearGradient
       inkscape:collect="always"
       xlink:href="#linearGradient877"
       id="linearGradient1995"
       x1="552.04651"
       y1="114.55848"
       x2="610.08167"
       y2="114.55848"
       gradientUnits="userSpaceOnUse" />
    <linearGradient
       inkscape:collect="always"
       xlink:href="#linearGradient877"
       id="linearGradient1997"
       x1="424.26224"
       y1="284.01709"
       x2="482.29742"
       y2="284.01709"
       gradientUnits="userSpaceOnUse" />
    <linearGradient
       inkscape:collect="always"
       xlink:href="#linearGradient877"
       id="linearGradient1999"
       x1="424.26224"
       y1="249.41386"
       x2="482.29742"
       y2="249.41386"
       gradientUnits="userSpaceOnUse" />
    <linearGradient
       inkscape:collect="always"
       xlink:href="#linearGradient877"
       id="linearGradient2001"
       x1="424.26224"
       y1="216.84196"
       x2="482.29742"
       y2="216.84196"
       gradientUnits="userSpaceOnUse" />
    <linearGradient
       inkscape:collect="always"
       xlink:href="#linearGradient877"
       id="linearGradient2003"
       x1="424.26224"
       y1="182.23869"
       x2="482.29742"
       y2="182.23869"
       gradientUnits="userSpaceOnUse" />
    <linearGradient
       inkscape:collect="always"
       xlink:href="#linearGradient877"
       id="linearGradient2005"
       x1="424.26224"
       y1="149.16174"
       x2="482.29742"
       y2="149.16174"
       gradientUnits="userSpaceOnUse" />
    <linearGradient
       inkscape:collect="always"
       xlink:href="#linearGradient877"
       id="linearGradient2007"
       x1="424.26224"
       y1="114.55848"
       x2="482.29742"
       y2="114.55848"
       gradientUnits="userSpaceOnUse" />
    <linearGradient
       inkscape:collect="always"
       xlink:href="#linearGradient971"
       id="linearGradient2042"
       x1="110.01431"
       y1="293.36102"
       x2="168.04942"
       y2="293.36102"
       gradientUnits="userSpaceOnUse" />
  </defs>
  <sodipodi:namedview
     id="base"
     pagecolor="#ffffff"
     bordercolor="#666666"
     borderopacity="1.0"
     inkscape:pageopacity="0.0"
     inkscape:pageshadow="2"
     inkscape:zoom="1.979899"
     inkscape:cx="203.53055"
     inkscape:cy="138.05524"
     inkscape:document-units="px"
     inkscape:current-layer="layer1"
     showgrid="false"
     inkscape:window-width="1920"
     inkscape:window-height="1023"
     inkscape:window-x="0"
     inkscape:window-y="28"
     inkscape:window-maximized="1"
     fit-margin-top="3"
     fit-margin-left="3"
     fit-margin-right="3"
     fit-margin-bottom="3" />
  <metadata
     id="metadata7">
    <rdf:RDF>
      <cc:Work
         rdf:about="">
        <dc:format>image/svg+xml</dc:format>
        <dc:type
           rdf:resource="http://purl.org/dc/dcmitype/StillImage" />
        <dc:title></dc:title>
      </cc:Work>
    </rdf:RDF>
  </metadata>
  <g
     inkscape:label="Layer 1"
     inkscape:groupmode="layer"
     id="layer1"
     transform="translate(-94.442711,-66.781703)">
    <path
       sodipodi:nodetypes="cc"
       style="fill:none;stroke:#000000;stroke-width:2;stroke-miterlimit:4;stroke-dasharray:none;stroke-opacity:1"
       d="M 581.06411,291.67432 V 121.54847"
       id="path7510"
       inkscape:connector-curvature="0" />
    <path
       inkscape:connector-curvature="0"
       id="path7512"
       d="M 516.82895,291.67432 V 121.54847"
       style="fill:none;stroke:#000000;stroke-width:2;stroke-miterlimit:4;stroke-dasharray:none;stroke-opacity:1"
       sodipodi:nodetypes="cc" />
    <path
       inkscape:connector-curvature="0"
       id="path7514"
       d="M 389.04465,291.67432 V 121.54847"
       style="fill:none;stroke:#000000;stroke-width:2;stroke-miterlimit:4;stroke-dasharray:none;stroke-opacity:1"
       sodipodi:nodetypes="cc" />
    <path
       sodipodi:nodetypes="cc"
       style="fill:none;stroke:#000000;stroke-width:2;stroke-miterlimit:4;stroke-dasharray:none;stroke-opacity:1"
       d="M 453.27982,291.67432 V 121.54847"
       id="path7516"
       inkscape:connector-curvature="0" />
    <path
       inkscape:connector-curvature="0"
       id="path5870"
       d="M 565.643,114.55848 H 395.51715"
       style="fill:none;stroke:#000000;stroke-width:2;stroke-miterlimit:4;stroke-dasharray:none;stroke-opacity:1"
       sodipodi:nodetypes="cc" />
    <path
       sodipodi:nodetypes="cc"
       style="fill:none;stroke:#000000;stroke-width:2;stroke-miterlimit:4;stroke-dasharray:none;stroke-opacity:1"
       d="M 565.643,149.16174 H 395.51715"
       id="path7500"
       inkscape:connector-curvature="0" />
    <path
       sodipodi:nodetypes="cc"
       style="fill:none;stroke:#000000;stroke-width:2;stroke-miterlimit:4;stroke-dasharray:none;stroke-opacity:1"
       d="M 565.643,284.01711 H 395.51715"
       id="path7502"
       inkscape:connector-curvature="0" />
    <path
       inkscape:connector-curvature="0"
       id="path7504"
       d="M 565.643,249.41385 H 395.51715"
       style="fill:none;stroke:#000000;stroke-width:2;stroke-miterlimit:4;stroke-dasharray:none;stroke-opacity:1"
       sodipodi:nodetypes="cc" />
    <path
       sodipodi:nodetypes="cc"
       style="fill:none;stroke:#000000;stroke-width:2;stroke-miterlimit:4;stroke-dasharray:none;stroke-opacity:1"
       d="M 565.643,216.84195 H 395.51715"
       id="path7506"
       inkscape:connector-curvature="0" />
    <path
       inkscape:connector-curvature="0"
       id="path7508"
       d="M 565.643,182.2387 H 395.51715"
       style="fill:none;stroke:#000000;stroke-width:2;stroke-miterlimit:4;stroke-dasharray:none;stroke-opacity:1"
       sodipodi:nodetypes="cc" />
    <rect
       style="color:#000000;display:inline;overflow:visible;visibility:visible;fill:none;stroke:#000000;stroke-width:3;stroke-linecap:butt;stroke-linejoin:miter;stroke-miterlimit:4;stroke-dasharray:none;stroke-dashoffset:0;stroke-opacity:1;marker:none;enable-background:accumulate"
       id="rect6693"
       width="237.85248"
       height="219.33214"
       x="98.942711"
       y="91.13694" />
    <text
       id="text6695"
       y="81.541702"
       x="217.59409"
       style="font-style:normal;font-variant:normal;font-weight:bold;font-stretch:normal;line-height:0%;font-family:'Nimbus Sans L';-inkscape-font-specification:'Sans Bold';text-align:center;letter-spacing:0px;word-spacing:0px;text-anchor:middle;fill:#000000;fill-opacity:1;stroke:none"
       xml:space="preserve"><tspan
         id="tspan6697"
         y="81.541702"
         x="217.59409"
         sodipodi:role="line"
         style="font-size:16px;line-height:1.25">Processor</tspan></text>
    <rect
       y="98.208008"
       x="106.51885"
       height="128.4184"
       width="223.20528"
       id="rect6807"
       style="color:#000000;display:inline;overflow:visible;visibility:visible;fill:url(#linearGradient1795);fill-opacity:1;stroke:#000000;stroke-width:1;stroke-linecap:butt;stroke-linejoin:miter;stroke-miterlimit:4;stroke-dasharray:none;stroke-dashoffset:0;stroke-opacity:1;marker:none;enable-background:accumulate" />
    <text
       xml:space="preserve"
       style="font-style:normal;font-variant:normal;font-weight:normal;font-stretch:normal;line-height:0%;font-family:'Nimbus Sans L';-inkscape-font-specification:'Nimbus Sans L';text-align:center;letter-spacing:0px;word-spacing:0px;text-anchor:middle;fill:#000000;fill-opacity:1;stroke:none"
       x="217.59409"
       y="168.16121"
       id="text6809"><tspan
         sodipodi:role="line"
         x="217.59409"
         y="168.16121"
         id="tspan6811"
         style="font-size:16px;line-height:1.25">Cache</tspan></text>
    <rect
       y="91.13694"
       x="354.51129"
       height="218.32196"
       width="263.10626"
       id="rect5882"
       style="color:#000000;display:inline;overflow:visible;visibility:visible;fill:none;stroke:#000000;stroke-width:3;stroke-linecap:butt;stroke-linejoin:miter;stroke-miterlimit:4;stroke-dasharray:none;stroke-dashoffset:0;stroke-opacity:1;marker:none;enable-background:accumulate" />
    <text
       xml:space="preserve"
       style="font-style:normal;font-variant:normal;font-weight:bold;font-stretch:normal;line-height:0%;font-family:'Nimbus Sans L';-inkscape-font-specification:'Sans Bold';text-align:center;letter-spacing:0px;word-spacing:0px;text-anchor:middle;fill:#000000;fill-opacity:1;stroke:none"
       x="485.6297"
       y="81.637703"
       id="text5884"><tspan
         sodipodi:role="line"
         x="485.6297"
         y="81.637703"
         id="tspan5886"
         style="font-size:16px;line-height:1.25">FPGA</tspan></text>
    <rect
       style="color:#000000;display:inline;overflow:visible;visibility:visible;fill:url(#linearGradient1799);fill-opacity:1;stroke:#000000;stroke-width:1;stroke-linecap:butt;stroke-linejoin:miter;stroke-miterlimit:4;stroke-dasharray:none;stroke-dashoffset:0;stroke-opacity:1;marker:none;enable-background:accumulate"
       id="rect6813"
       width="57.035168"
       height="27.403158"
       x="360.52707"
       y="100.8569" />
    <text
       id="text6815"
       y="119.54594"
       x="388.26474"
       style="font-style:normal;font-variant:normal;font-weight:normal;font-stretch:normal;line-height:0%;font-family:'Nimbus Sans L';-inkscape-font-specification:'Nimbus Sans L';text-align:center;letter-spacing:0px;word-spacing:0px;text-anchor:middle;fill:#000000;fill-opacity:1;stroke:none"
       xml:space="preserve"><tspan
         style="font-size:16px;line-height:1.25"
         id="tspan6817"
         y="119.54594"
         x="388.26474"
         sodipodi:role="line">BRAM</tspan></text>
    <rect
       y="100.8569"
       x="424.76224"
       height="27.403158"
       width="57.035168"
       id="rect6826"
       style="color:#000000;display:inline;overflow:visible;visibility:visible;fill:url(#linearGradient2007);fill-opacity:1;stroke:#000000;stroke-width:1;stroke-linecap:butt;stroke-linejoin:miter;stroke-miterlimit:4;stroke-dasharray:none;stroke-dashoffset:0;stroke-opacity:1;marker:none;enable-background:accumulate" />
    <text
       xml:space="preserve"
       style="font-style:normal;font-variant:normal;font-weight:normal;font-stretch:normal;line-height:0%;font-family:'Nimbus Sans L';-inkscape-font-specification:'Nimbus Sans L';text-align:center;letter-spacing:0px;word-spacing:0px;text-anchor:middle;fill:#000000;fill-opacity:1;stroke:none"
       x="452.49991"
       y="119.54594"
       id="text6828"><tspan
         style="font-size:16px;line-height:1.25"
         sodipodi:role="line"
         x="452.49991"
         y="119.54594"
         id="tspan6830">LUT</tspan></text>
    <rect
       style="color:#000000;display:inline;overflow:visible;visibility:visible;fill:url(#linearGradient2005);fill-opacity:1;stroke:#000000;stroke-width:1;stroke-linecap:butt;stroke-linejoin:miter;stroke-miterlimit:4;stroke-dasharray:none;stroke-dashoffset:0;stroke-opacity:1;marker:none;enable-background:accumulate"
       id="rect6842"
       width="57.035168"
       height="27.403158"
       x="424.76224"
       y="135.46016" />
    <text
       id="text6844"
       y="154.1492"
       x="452.49991"
       style="font-style:normal;font-variant:normal;font-weight:normal;font-stretch:normal;line-height:0%;font-family:'Nimbus Sans L';-inkscape-font-specification:'Nimbus Sans L';text-align:center;letter-spacing:0px;word-spacing:0px;text-anchor:middle;fill:#000000;fill-opacity:1;stroke:none"
       xml:space="preserve"><tspan
         style="font-size:16px;line-height:1.25"
         id="tspan6846"
         y="154.1492"
         x="452.49991"
         sodipodi:role="line">FF</tspan></text>
    <rect
       y="135.46016"
       x="360.52707"
       height="27.403158"
       width="57.035168"
       id="rect6850"
       style="color:#000000;display:inline;overflow:visible;visibility:visible;fill:url(#linearGradient1850);fill-opacity:1;stroke:#000000;stroke-width:1;stroke-linecap:butt;stroke-linejoin:miter;stroke-miterlimit:4;stroke-dasharray:none;stroke-dashoffset:0;stroke-opacity:1;marker:none;enable-background:accumulate" />
    <text
       xml:space="preserve"
       style="font-style:normal;font-variant:normal;font-weight:normal;font-stretch:normal;line-height:0%;font-family:'Nimbus Sans L';-inkscape-font-specification:'Nimbus Sans L';text-align:center;letter-spacing:0px;word-spacing:0px;text-anchor:middle;fill:#000000;fill-opacity:1;stroke:none"
       x="388.26474"
       y="154.14919"
       id="text6852"><tspan
         style="font-size:16px;line-height:1.25"
         sodipodi:role="line"
         x="388.26474"
         y="154.14919"
         id="tspan6854">DSP</tspan></text>
    <rect
       y="100.8569"
       x="488.31137"
       height="27.403158"
       width="57.035168"
       id="rect6878"
       style="color:#000000;display:inline;overflow:visible;visibility:visible;fill:url(#linearGradient1797);fill-opacity:1;stroke:#000000;stroke-width:1;stroke-linecap:butt;stroke-linejoin:miter;stroke-miterlimit:4;stroke-dasharray:none;stroke-dashoffset:0;stroke-opacity:1;marker:none;enable-background:accumulate" />
    <text
       xml:space="preserve"
       style="font-style:normal;font-variant:normal;font-weight:normal;font-stretch:normal;line-height:0%;font-family:'Nimbus Sans L';-inkscape-font-specification:'Nimbus Sans L';text-align:center;letter-spacing:0px;word-spacing:0px;text-anchor:middle;fill:#000000;fill-opacity:1;stroke:none"
       x="516.04901"
       y="119.54594"
       id="text6880"><tspan
         style="font-size:16px;line-height:1.25"
         sodipodi:role="line"
         x="516.04901"
         y="119.54594"
         id="tspan6882">BRAM</tspan></text>
    <rect
       style="color:#000000;display:inline;overflow:visible;visibility:visible;fill:url(#linearGradient1995);fill-opacity:1;stroke:#000000;stroke-width:1;stroke-linecap:butt;stroke-linejoin:miter;stroke-miterlimit:4;stroke-dasharray:none;stroke-dashoffset:0;stroke-opacity:1;marker:none;enable-background:accumulate"
       id="rect6886"
       width="57.035168"
       height="27.403158"
       x="552.54651"
       y="100.8569" />
    <text
       id="text6888"
       y="119.54594"
       x="580.28418"
       style="font-style:normal;font-variant:normal;font-weight:normal;font-stretch:normal;line-height:0%;font-family:'Nimbus Sans L';-inkscape-font-specification:'Nimbus Sans L';text-align:center;letter-spacing:0px;word-spacing:0px;text-anchor:middle;fill:#000000;fill-opacity:1;stroke:none"
       xml:space="preserve"><tspan
         style="font-size:16px;line-height:1.25"
         id="tspan6890"
         y="119.54594"
         x="580.28418"
         sodipodi:role="line">LUT</tspan></text>
    <rect
       y="135.46016"
       x="552.54651"
       height="27.403158"
       width="57.035168"
       id="rect6894"
       style="color:#000000;display:inline;overflow:visible;visibility:visible;fill:url(#linearGradient1993);fill-opacity:1;stroke:#000000;stroke-width:1;stroke-linecap:butt;stroke-linejoin:miter;stroke-miterlimit:4;stroke-dasharray:none;stroke-dashoffset:0;stroke-opacity:1;marker:none;enable-background:accumulate" />
    <text
       xml:space="preserve"
       style="font-style:normal;font-variant:normal;font-weight:normal;font-stretch:normal;line-height:0%;font-family:'Nimbus Sans L';-inkscape-font-specification:'Nimbus Sans L';text-align:center;letter-spacing:0px;word-spacing:0px;text-anchor:middle;fill:#000000;fill-opacity:1;stroke:none"
       x="580.28418"
       y="154.1492"
       id="text6896"><tspan
         style="font-size:16px;line-height:1.25"
         sodipodi:role="line"
         x="580.28418"
         y="154.1492"
         id="tspan6898">FF</tspan></text>
    <rect
       style="color:#000000;display:inline;overflow:visible;visibility:visible;fill:url(#linearGradient1848);fill-opacity:1;stroke:#000000;stroke-width:1;stroke-linecap:butt;stroke-linejoin:miter;stroke-miterlimit:4;stroke-dasharray:none;stroke-dashoffset:0;stroke-opacity:1;marker:none;enable-background:accumulate"
       id="rect6902"
       width="57.035168"
       height="27.403158"
       x="488.31137"
       y="135.46016" />
    <text
       id="text6904"
       y="154.14919"
       x="516.04901"
       style="font-style:normal;font-variant:normal;font-weight:normal;font-stretch:normal;line-height:0%;font-family:'Nimbus Sans L';-inkscape-font-specification:'Nimbus Sans L';text-align:center;letter-spacing:0px;word-spacing:0px;text-anchor:middle;fill:#000000;fill-opacity:1;stroke:none"
       xml:space="preserve"><tspan
         style="font-size:16px;line-height:1.25"
         id="tspan6906"
         y="154.14919"
         x="516.04901"
         sodipodi:role="line">DSP</tspan></text>
    <rect
       y="168.53712"
       x="360.52707"
       height="27.403158"
       width="57.035168"
       id="rect6912"
       style="color:#000000;display:inline;overflow:visible;visibility:visible;fill:url(#linearGradient1801);fill-opacity:1;stroke:#000000;stroke-width:1;stroke-linecap:butt;stroke-linejoin:miter;stroke-miterlimit:4;stroke-dasharray:none;stroke-dashoffset:0;stroke-opacity:1;marker:none;enable-background:accumulate" />
    <text
       xml:space="preserve"
       style="font-style:normal;font-variant:normal;font-weight:normal;font-stretch:normal;line-height:0%;font-family:'Nimbus Sans L';-inkscape-font-specification:'Nimbus Sans L';text-align:center;letter-spacing:0px;word-spacing:0px;text-anchor:middle;fill:#000000;fill-opacity:1;stroke:none"
       x="388.26474"
       y="187.22617"
       id="text6914"><tspan
         style="font-size:16px;line-height:1.25"
         sodipodi:role="line"
         x="388.26474"
         y="187.22617"
         id="tspan6916">BRAM</tspan></text>
    <rect
       style="color:#000000;display:inline;overflow:visible;visibility:visible;fill:url(#linearGradient2003);fill-opacity:1;stroke:#000000;stroke-width:1;stroke-linecap:butt;stroke-linejoin:miter;stroke-miterlimit:4;stroke-dasharray:none;stroke-dashoffset:0;stroke-opacity:1;marker:none;enable-background:accumulate"
       id="rect6920"
       width="57.035168"
       height="27.403158"
       x="424.76224"
       y="168.53712" />
    <text
       id="text6922"
       y="187.22615"
       x="452.49991"
       style="font-style:normal;font-variant:normal;font-weight:normal;font-stretch:normal;line-height:0%;font-family:'Nimbus Sans L';-inkscape-font-specification:'Nimbus Sans L';text-align:center;letter-spacing:0px;word-spacing:0px;text-anchor:middle;fill:#000000;fill-opacity:1;stroke:none"
       xml:space="preserve"><tspan
         style="font-size:16px;line-height:1.25"
         id="tspan6924"
         y="187.22615"
         x="452.49991"
         sodipodi:role="line">LUT</tspan></text>
    <rect
       y="203.14038"
       x="424.76224"
       height="27.403158"
       width="57.035168"
       id="rect6928"
       style="color:#000000;display:inline;overflow:visible;visibility:visible;fill:url(#linearGradient2001);fill-opacity:1;stroke:#000000;stroke-width:1;stroke-linecap:butt;stroke-linejoin:miter;stroke-miterlimit:4;stroke-dasharray:none;stroke-dashoffset:0;stroke-opacity:1;marker:none;enable-background:accumulate" />
    <text
       xml:space="preserve"
       style="font-style:normal;font-variant:normal;font-weight:normal;font-stretch:normal;line-height:0%;font-family:'Nimbus Sans L';-inkscape-font-specification:'Nimbus Sans L';text-align:center;letter-spacing:0px;word-spacing:0px;text-anchor:middle;fill:#000000;fill-opacity:1;stroke:none"
       x="452.49991"
       y="221.82942"
       id="text6930"><tspan
         style="font-size:16px;line-height:1.25"
         sodipodi:role="line"
         x="452.49991"
         y="221.82942"
         id="tspan6932">FF</tspan></text>
    <rect
       style="color:#000000;display:inline;overflow:visible;visibility:visible;fill:url(#linearGradient1852);fill-opacity:1;stroke:#000000;stroke-width:1;stroke-linecap:butt;stroke-linejoin:miter;stroke-miterlimit:4;stroke-dasharray:none;stroke-dashoffset:0;stroke-opacity:1;marker:none;enable-background:accumulate"
       id="rect6936"
       width="57.035168"
       height="27.403158"
       x="360.52707"
       y="203.14037" />
    <text
       id="text6938"
       y="221.82941"
       x="388.26474"
       style="font-style:normal;font-variant:normal;font-weight:normal;font-stretch:normal;line-height:0%;font-family:'Nimbus Sans L';-inkscape-font-specification:'Nimbus Sans L';text-align:center;letter-spacing:0px;word-spacing:0px;text-anchor:middle;fill:#000000;fill-opacity:1;stroke:none"
       xml:space="preserve"><tspan
         style="font-size:16px;line-height:1.25"
         id="tspan6940"
         y="221.82941"
         x="388.26474"
         sodipodi:role="line">DSP</tspan></text>
    <rect
       style="color:#000000;display:inline;overflow:visible;visibility:visible;fill:url(#linearGradient1803);fill-opacity:1;stroke:#000000;stroke-width:1;stroke-linecap:butt;stroke-linejoin:miter;stroke-miterlimit:4;stroke-dasharray:none;stroke-dashoffset:0;stroke-opacity:1;marker:none;enable-background:accumulate"
       id="rect6946"
       width="57.035168"
       height="27.403158"
       x="488.31137"
       y="168.53712" />
    <text
       id="text6948"
       y="187.22617"
       x="516.04901"
       style="font-style:normal;font-variant:normal;font-weight:normal;font-stretch:normal;line-height:0%;font-family:'Nimbus Sans L';-inkscape-font-specification:'Nimbus Sans L';text-align:center;letter-spacing:0px;word-spacing:0px;text-anchor:middle;fill:#000000;fill-opacity:1;stroke:none"
       xml:space="preserve"><tspan
         style="font-size:16px;line-height:1.25"
         id="tspan6950"
         y="187.22617"
         x="516.04901"
         sodipodi:role="line">BRAM</tspan></text>
    <rect
       y="168.53712"
       x="552.54651"
       height="27.403158"
       width="57.035168"
       id="rect6954"
       style="color:#000000;display:inline;overflow:visible;visibility:visible;fill:url(#linearGradient1991);fill-opacity:1;stroke:#000000;stroke-width:1;stroke-linecap:butt;stroke-linejoin:miter;stroke-miterlimit:4;stroke-dasharray:none;stroke-dashoffset:0;stroke-opacity:1;marker:none;enable-background:accumulate" />
    <text
       xml:space="preserve"
       style="font-style:normal;font-variant:normal;font-weight:normal;font-stretch:normal;line-height:0%;font-family:'Nimbus Sans L';-inkscape-font-specification:'Nimbus Sans L';text-align:center;letter-spacing:0px;word-spacing:0px;text-anchor:middle;fill:#000000;fill-opacity:1;stroke:none"
       x="580.28418"
       y="187.22615"
       id="text6956"><tspan
         style="font-size:16px;line-height:1.25"
         sodipodi:role="line"
         x="580.28418"
         y="187.22615"
         id="tspan6958">LUT</tspan></text>
    <rect
       style="color:#000000;display:inline;overflow:visible;visibility:visible;fill:url(#linearGradient1989);fill-opacity:1;stroke:#000000;stroke-width:1;stroke-linecap:butt;stroke-linejoin:miter;stroke-miterlimit:4;stroke-dasharray:none;stroke-dashoffset:0;stroke-opacity:1;marker:none;enable-background:accumulate"
       id="rect6962"
       width="57.035168"
       height="27.403158"
       x="552.54651"
       y="203.14038" />
    <text
       id="text6964"
       y="221.82942"
       x="580.28418"
       style="font-style:normal;font-variant:normal;font-weight:normal;font-stretch:normal;line-height:0%;font-family:'Nimbus Sans L';-inkscape-font-specification:'Nimbus Sans L';text-align:center;letter-spacing:0px;word-spacing:0px;text-anchor:middle;fill:#000000;fill-opacity:1;stroke:none"
       xml:space="preserve"><tspan
         style="font-size:16px;line-height:1.25"
         id="tspan6966"
         y="221.82942"
         x="580.28418"
         sodipodi:role="line">FF</tspan></text>
    <rect
       y="203.14037"
       x="488.31137"
       height="27.403158"
       width="57.035168"
       id="rect6970"
       style="color:#000000;display:inline;overflow:visible;visibility:visible;fill:url(#linearGradient1854);fill-opacity:1;stroke:#000000;stroke-width:1;stroke-linecap:butt;stroke-linejoin:miter;stroke-miterlimit:4;stroke-dasharray:none;stroke-dashoffset:0;stroke-opacity:1;marker:none;enable-background:accumulate" />
    <text
       xml:space="preserve"
       style="font-style:normal;font-variant:normal;font-weight:normal;font-stretch:normal;line-height:0%;font-family:'Nimbus Sans L';-inkscape-font-specification:'Nimbus Sans L';text-align:center;letter-spacing:0px;word-spacing:0px;text-anchor:middle;fill:#000000;fill-opacity:1;stroke:none"
       x="516.04901"
       y="221.82941"
       id="text6972"><tspan
         style="font-size:16px;line-height:1.25"
         sodipodi:role="line"
         x="516.04901"
         y="221.82941"
         id="tspan6974">DSP</tspan></text>
    <rect
       style="color:#000000;display:inline;overflow:visible;visibility:visible;fill:url(#linearGradient1807);fill-opacity:1;stroke:#000000;stroke-width:1;stroke-linecap:butt;stroke-linejoin:miter;stroke-miterlimit:4;stroke-dasharray:none;stroke-dashoffset:0;stroke-opacity:1;marker:none;enable-background:accumulate"
       id="rect6980"
       width="57.035168"
       height="27.403158"
       x="360.52707"
       y="235.71227" />
    <text
       id="text6982"
       y="254.40131"
       x="388.26474"
       style="font-style:normal;font-variant:normal;font-weight:normal;font-stretch:normal;line-height:0%;font-family:'Nimbus Sans L';-inkscape-font-specification:'Nimbus Sans L';text-align:center;letter-spacing:0px;word-spacing:0px;text-anchor:middle;fill:#000000;fill-opacity:1;stroke:none"
       xml:space="preserve"><tspan
         id="tspan6984"
         y="254.40131"
         x="388.26474"
         sodipodi:role="line"
         style="font-size:16px;line-height:1.25">BRAM</tspan></text>
    <rect
       y="235.71228"
       x="424.76224"
       height="27.403158"
       width="57.035168"
       id="rect6988"
       style="color:#000000;display:inline;overflow:visible;visibility:visible;fill:url(#linearGradient1999);fill-opacity:1;stroke:#000000;stroke-width:1;stroke-linecap:butt;stroke-linejoin:miter;stroke-miterlimit:4;stroke-dasharray:none;stroke-dashoffset:0;stroke-opacity:1;marker:none;enable-background:accumulate" />
    <text
       xml:space="preserve"
       style="font-style:normal;font-variant:normal;font-weight:normal;font-stretch:normal;line-height:0%;font-family:'Nimbus Sans L';-inkscape-font-specification:'Nimbus Sans L';text-align:center;letter-spacing:0px;word-spacing:0px;text-anchor:middle;fill:#000000;fill-opacity:1;stroke:none"
       x="452.49991"
       y="254.40131"
       id="text6990"><tspan
         style="font-size:16px;line-height:1.25"
         sodipodi:role="line"
         x="452.49991"
         y="254.40131"
         id="tspan6992">LUT</tspan></text>
    <rect
       style="color:#000000;display:inline;overflow:visible;visibility:visible;fill:url(#linearGradient1997);fill-opacity:1;stroke:#000000;stroke-width:1;stroke-linecap:butt;stroke-linejoin:miter;stroke-miterlimit:4;stroke-dasharray:none;stroke-dashoffset:0;stroke-opacity:1;marker:none;enable-background:accumulate"
       id="rect6996"
       width="57.035168"
       height="27.403158"
       x="424.76224"
       y="270.31552" />
    <text
       id="text6998"
       y="289.00458"
       x="452.49991"
       style="font-style:normal;font-variant:normal;font-weight:normal;font-stretch:normal;line-height:0%;font-family:'Nimbus Sans L';-inkscape-font-specification:'Nimbus Sans L';text-align:center;letter-spacing:0px;word-spacing:0px;text-anchor:middle;fill:#000000;fill-opacity:1;stroke:none"
       xml:space="preserve"><tspan
         style="font-size:16px;line-height:1.25"
         id="tspan7000"
         y="289.00458"
         x="452.49991"
         sodipodi:role="line">FF</tspan></text>
    <rect
       y="270.31552"
       x="360.52707"
       height="27.403158"
       width="57.035168"
       id="rect7004"
       style="color:#000000;display:inline;overflow:visible;visibility:visible;fill:url(#linearGradient1858);fill-opacity:1;stroke:#000000;stroke-width:1;stroke-linecap:butt;stroke-linejoin:miter;stroke-miterlimit:4;stroke-dasharray:none;stroke-dashoffset:0;stroke-opacity:1;marker:none;enable-background:accumulate" />
    <text
       xml:space="preserve"
       style="font-style:normal;font-variant:normal;font-weight:normal;font-stretch:normal;line-height:0%;font-family:'Nimbus Sans L';-inkscape-font-specification:'Nimbus Sans L';text-align:center;letter-spacing:0px;word-spacing:0px;text-anchor:middle;fill:#000000;fill-opacity:1;stroke:none"
       x="388.26474"
       y="289.00455"
       id="text7006"><tspan
         style="font-size:16px;line-height:1.25"
         sodipodi:role="line"
         x="388.26474"
         y="289.00455"
         id="tspan7008">DSP</tspan></text>
    <rect
       y="235.71227"
       x="488.31137"
       height="27.403158"
       width="57.035168"
       id="rect7014"
       style="color:#000000;display:inline;overflow:visible;visibility:visible;fill:url(#linearGradient1805);fill-opacity:1;stroke:#000000;stroke-width:1;stroke-linecap:butt;stroke-linejoin:miter;stroke-miterlimit:4;stroke-dasharray:none;stroke-dashoffset:0;stroke-opacity:1;marker:none;enable-background:accumulate" />
    <text
       xml:space="preserve"
       style="font-style:normal;font-variant:normal;font-weight:normal;font-stretch:normal;line-height:0%;font-family:'Nimbus Sans L';-inkscape-font-specification:'Nimbus Sans L';text-align:center;letter-spacing:0px;word-spacing:0px;text-anchor:middle;fill:#000000;fill-opacity:1;stroke:none"
       x="516.04901"
       y="254.40131"
       id="text7016"><tspan
         style="font-size:16px;line-height:1.25"
         sodipodi:role="line"
         x="516.04901"
         y="254.40131"
         id="tspan7018">BRAM</tspan></text>
    <rect
       style="color:#000000;display:inline;overflow:visible;visibility:visible;fill:url(#linearGradient1987);fill-opacity:1;stroke:#000000;stroke-width:1;stroke-linecap:butt;stroke-linejoin:miter;stroke-miterlimit:4;stroke-dasharray:none;stroke-dashoffset:0;stroke-opacity:1;marker:none;enable-background:accumulate"
       id="rect7022"
       width="57.035168"
       height="27.403158"
       x="552.54651"
       y="235.71228" />
    <text
       id="text7024"
       y="254.40131"
       x="580.28418"
       style="font-style:normal;font-variant:normal;font-weight:normal;font-stretch:normal;line-height:0%;font-family:'Nimbus Sans L';-inkscape-font-specification:'Nimbus Sans L';text-align:center;letter-spacing:0px;word-spacing:0px;text-anchor:middle;fill:#000000;fill-opacity:1;stroke:none"
       xml:space="preserve"><tspan
         style="font-size:16px;line-height:1.25"
         id="tspan7026"
         y="254.40131"
         x="580.28418"
         sodipodi:role="line">LUT</tspan></text>
    <rect
       y="270.31552"
       x="552.54651"
       height="27.403158"
       width="57.035168"
       id="rect7030"
       style="color:#000000;display:inline;overflow:visible;visibility:visible;fill:url(#linearGradient1985);fill-opacity:1;stroke:#000000;stroke-width:1;stroke-linecap:butt;stroke-linejoin:miter;stroke-miterlimit:4;stroke-dasharray:none;stroke-dashoffset:0;stroke-opacity:1;marker:none;enable-background:accumulate" />
    <text
       xml:space="preserve"
       style="font-style:normal;font-variant:normal;font-weight:normal;font-stretch:normal;line-height:0%;font-family:'Nimbus Sans L';-inkscape-font-specification:'Nimbus Sans L';text-align:center;letter-spacing:0px;word-spacing:0px;text-anchor:middle;fill:#000000;fill-opacity:1;stroke:none"
       x="580.28418"
       y="289.00458"
       id="text7032"><tspan
         style="font-size:16px;line-height:1.25"
         sodipodi:role="line"
         x="580.28418"
         y="289.00458"
         id="tspan7034">FF</tspan></text>
    <rect
       style="color:#000000;display:inline;overflow:visible;visibility:visible;fill:url(#linearGradient1856);fill-opacity:1;stroke:#000000;stroke-width:1;stroke-linecap:butt;stroke-linejoin:miter;stroke-miterlimit:4;stroke-dasharray:none;stroke-dashoffset:0;stroke-opacity:1;marker:none;enable-background:accumulate"
       id="rect7038"
       width="57.035168"
       height="27.403158"
       x="488.31137"
       y="270.31552" />
    <text
       id="text7040"
       y="289.00455"
       x="516.04901"
       style="font-style:normal;font-variant:normal;font-weight:normal;font-stretch:normal;line-height:0%;font-family:'Nimbus Sans L';-inkscape-font-specification:'Nimbus Sans L';text-align:center;letter-spacing:0px;word-spacing:0px;text-anchor:middle;fill:#000000;fill-opacity:1;stroke:none"
       xml:space="preserve"><tspan
         style="font-size:16px;line-height:1.25"
         id="tspan7042"
         y="289.00455"
         x="516.04901"
         sodipodi:role="line">DSP</tspan></text>
    <rect
       style="color:#000000;display:inline;overflow:visible;visibility:visible;fill:none;fill-opacity:1;stroke:#000000;stroke-width:1;stroke-linecap:butt;stroke-linejoin:miter;stroke-miterlimit:4;stroke-dasharray:none;stroke-dashoffset:0;stroke-opacity:1;marker:none;enable-background:accumulate"
       id="rect7044"
       width="135.32199"
       height="75.385399"
       x="106.51885"
       y="231.54814" />
    <text
       id="text7046"
       y="245.94296"
       x="173.14737"
       style="font-style:normal;font-variant:normal;font-weight:bold;font-stretch:normal;line-height:0%;font-family:'Nimbus Sans L';-inkscape-font-specification:'Nimbus Sans L Bold';text-align:center;letter-spacing:0px;word-spacing:0px;text-anchor:middle;fill:#000000;fill-opacity:1;stroke:none"
       xml:space="preserve"><tspan
         id="tspan7048"
         y="245.94296"
         x="173.14737"
         sodipodi:role="line"
         style="font-size:16px;line-height:1.25">Core</tspan></text>
    <rect
       style="color:#000000;display:inline;overflow:visible;visibility:visible;fill:url(#linearGradient1793);fill-opacity:1;stroke:#000000;stroke-width:1;stroke-linecap:butt;stroke-linejoin:miter;stroke-miterlimit:4;stroke-dasharray:none;stroke-dashoffset:0;stroke-opacity:1;marker:none;enable-background:accumulate"
       id="rect7050"
       width="128.48135"
       height="26.223484"
       x="109.82397"
       y="248.89026" />
    <text
       id="text7052"
       y="267.746"
       x="174.02977"
       style="font-style:normal;font-variant:normal;font-weight:normal;font-stretch:normal;line-height:0%;font-family:'Nimbus Sans L';-inkscape-font-specification:'Nimbus Sans L';text-align:center;letter-spacing:0px;word-spacing:0px;text-anchor:middle;fill:#000000;fill-opacity:1;stroke:none"
       xml:space="preserve"><tspan
         id="tspan7054"
         y="267.746"
         x="174.02977"
         sodipodi:role="line"
         style="font-size:16px;line-height:1.25">Cache</tspan></text>
    <rect
       style="color:#000000;display:inline;overflow:visible;visibility:visible;fill:url(#linearGradient1860);fill-opacity:1;stroke:#000000;stroke-width:1;stroke-linecap:butt;stroke-linejoin:miter;stroke-miterlimit:4;stroke-dasharray:none;stroke-dashoffset:0;stroke-opacity:1;marker:none;enable-background:accumulate"
       id="rect7074"
       width="30.771154"
       height="17.806702"
       x="206.98389"
       y="284.45767" />
    <text
       id="text7076"
       y="297.59085"
       x="221.58957"
       style="font-style:normal;font-variant:normal;font-weight:normal;font-stretch:normal;line-height:0%;font-family:'Nimbus Sans L';-inkscape-font-specification:'Nimbus Sans L';text-align:center;letter-spacing:0px;word-spacing:0px;text-anchor:middle;fill:#000000;fill-opacity:1;stroke:none"
       xml:space="preserve"><tspan
         style="font-size:12px;line-height:1.25"
         id="tspan7078"
         y="297.59085"
         x="221.58957"
         sodipodi:role="line">VPU</tspan></text>
    <rect
       y="284.45767"
       x="172.6387"
       height="17.806702"
       width="30.771154"
       id="rect7082"
       style="color:#000000;display:inline;overflow:visible;visibility:visible;fill:url(#linearGradient1862);fill-opacity:1;stroke:#000000;stroke-width:1;stroke-linecap:butt;stroke-linejoin:miter;stroke-miterlimit:4;stroke-dasharray:none;stroke-dashoffset:0;stroke-opacity:1;marker:none;enable-background:accumulate" />
    <text
       xml:space="preserve"
       style="font-style:normal;font-variant:normal;font-weight:normal;font-stretch:normal;line-height:0%;font-family:'Nimbus Sans L';-inkscape-font-specification:'Nimbus Sans L';text-align:center;letter-spacing:0px;word-spacing:0px;text-anchor:middle;fill:#000000;fill-opacity:1;stroke:none"
       x="187.24438"
       y="297.59085"
       id="text7084"><tspan
         style="font-size:12px;line-height:1.25"
         sodipodi:role="line"
         x="187.24438"
         y="297.59085"
         id="tspan7086">VPU</tspan></text>
    <rect
       style="color:#000000;display:inline;overflow:visible;visibility:visible;fill:url(#linearGradient2042);fill-opacity:1;stroke:#000000;stroke-width:1;stroke-linecap:butt;stroke-linejoin:miter;stroke-miterlimit:4;stroke-dasharray:none;stroke-dashoffset:0;stroke-opacity:1;marker:none;enable-background:accumulate"
       id="rect7090"
       width="57.035114"
       height="17.806702"
       x="110.51431"
       y="284.45767" />
    <text
       id="text7092"
       y="296.89102"
       x="138.73688"
       style="font-style:normal;font-variant:normal;font-weight:normal;font-stretch:normal;line-height:0%;font-family:'Nimbus Sans L';-inkscape-font-specification:'Nimbus Sans L';text-align:center;letter-spacing:0px;word-spacing:0px;text-anchor:middle;fill:#000000;fill-opacity:1;stroke:none"
       xml:space="preserve"><tspan
         id="tspan7094"
         y="296.89102"
         x="138.73688"
         sodipodi:role="line"
         style="font-size:10px;line-height:1.25">Instructions</tspan></text>
    <g
       id="g6684"
       transform="rotate(90,408.48072,172.1402)">
      <circle
         transform="translate(0,-8.225441e-5)"
         id="path6674"
         style="color:#000000;display:inline;overflow:visible;visibility:visible;fill:#000000;fill-opacity:1;fill-rule:nonzero;stroke:none;stroke-width:2;marker:none;enable-background:accumulate"
         cx="505.58136"
         cy="288.18179"
         r="2.5253813" />
      <circle
         transform="translate(0,12.626871)"
         style="color:#000000;display:inline;overflow:visible;visibility:visible;fill:#000000;fill-opacity:1;fill-rule:nonzero;stroke:none;stroke-width:2;marker:none;enable-background:accumulate"
         id="path6676"
         cx="505.58136"
         cy="288.18179"
         r="2.5253813" />
      <circle
         id="path6678"
         style="color:#000000;display:inline;overflow:visible;visibility:visible;fill:#000000;fill-opacity:1;fill-rule:nonzero;stroke:none;stroke-width:2;marker:none;enable-background:accumulate"
         transform="translate(0,25.253824)"
         cx="505.58136"
         cy="288.18179"
         r="2.5253813" />
    </g>
    <text
       xml:space="preserve"
       style="font-style:normal;font-variant:normal;font-weight:normal;font-stretch:normal;line-height:0%;font-family:'Nimbus Sans L';-inkscape-font-specification:'Nimbus Sans L';text-align:center;letter-spacing:0px;word-spacing:0px;text-anchor:middle;fill:#000000;fill-opacity:1;stroke:none"
       x="217.65007"
       y="332.90085"
       id="text7528"><tspan
         sodipodi:role="line"
         x="217.65007"
         y="332.90085"
         id="tspan7530"
         style="font-size:16px;line-height:1.25">Data movement <tspan
   style="font-weight:bold;-inkscape-font-specification:'Nimbus Sans L Bold';fill:#ff0000;fill-opacity:1"
   id="tspan7544">triggered</tspan></tspan><tspan
         sodipodi:role="line"
         x="217.65007"
         y="353.03708"
         id="tspan7532"
         style="font-size:16px;line-height:1.25">by instructions</tspan></text>
    <text
       id="text7534"
       y="332.90085"
       x="485.84555"
       style="font-style:normal;font-variant:normal;font-weight:normal;font-stretch:normal;line-height:0%;font-family:'Nimbus Sans L';-inkscape-font-specification:'Nimbus Sans L';text-align:center;letter-spacing:0px;word-spacing:0px;text-anchor:middle;fill:#000000;fill-opacity:1;stroke:none"
       xml:space="preserve"><tspan
         id="tspan7538"
         y="332.90085"
         x="485.84555"
         sodipodi:role="line"
         style="font-size:16px;line-height:1.25">Data movement <tspan
   style="font-weight:bold;-inkscape-font-specification:'Nimbus Sans L Bold';fill:#ff0000;fill-opacity:1"
   id="tspan7542">programmed</tspan></tspan></text>
  </g>
</svg>
